<?xml version='1.0' encoding='UTF-8' standalone='yes' ?>
<gpx version="1.1" creator="OsmAnd~ 4.1.11" xmlns="http://www.topografix.com/GPX/1/1" xmlns:osmand="https://osmand.net" xmlns:xsi="http://www.w3.org/2001/XMLSchema-instance" xsi:schemaLocation="http://www.topografix.com/GPX/1/1 http://www.topografix.com/GPX/1/1/gpx.xsd">
  <metadata>
    <name>2022-03-24_17-17_Thu</name>
  </metadata>
  <trk>
    <trkseg>
      <trkpt lat="41.757555" lon="-111.8233683">
        <ele>1411.8</ele>
        <time>2022-03-24T23:17:32Z</time>
        <hdop>2</hdop>
        <extensions>
          <osmand:speed>0</osmand:speed>
        </extensions>
      </trkpt>
      <trkpt lat="41.7575483" lon="-111.823345">
        <ele>1411.2</ele>
        <time>2022-03-24T23:17:36Z</time>
        <hdop>1.9</hdop>
        <extensions>
          <osmand:speed>0.6</osmand:speed>
        </extensions>
      </trkpt>
      <trkpt lat="41.75756" lon="-111.8233767">
        <ele>1410.5</ele>
        <time>2022-03-24T23:17:42Z</time>
        <hdop>2</hdop>
        <extensions>
          <osmand:speed>0.8</osmand:speed>
        </extensions>
      </trkpt>
      <trkpt lat="41.7575583" lon="-111.8234267">
        <ele>1410.3</ele>
        <time>2022-03-24T23:17:43Z</time>
        <hdop>2</hdop>
        <extensions>
          <osmand:speed>2.1</osmand:speed>
        </extensions>
      </trkpt>
      <trkpt lat="41.7575583" lon="-111.8234783">
        <ele>1410.2</ele>
        <time>2022-03-24T23:17:44Z</time>
        <hdop>1.9</hdop>
        <extensions>
          <osmand:speed>4.8</osmand:speed>
        </extensions>
      </trkpt>
      <trkpt lat="41.7575567" lon="-111.823545">
        <ele>1410.1</ele>
        <time>2022-03-24T23:17:45Z</time>
        <hdop>1.9</hdop>
        <extensions>
          <osmand:speed>5.7</osmand:speed>
        </extensions>
      </trkpt>
      <trkpt lat="41.7575683" lon="-111.8237133">
        <ele>1409.8</ele>
        <time>2022-03-24T23:17:47Z</time>
        <hdop>2</hdop>
        <extensions>
          <osmand:speed>7.6</osmand:speed>
        </extensions>
      </trkpt>
      <trkpt lat="41.757575" lon="-111.8238133">
        <ele>1409.8</ele>
        <time>2022-03-24T23:17:48Z</time>
        <hdop>2</hdop>
        <extensions>
          <osmand:speed>8.2</osmand:speed>
        </extensions>
      </trkpt>
      <trkpt lat="41.757585" lon="-111.8240333">
        <ele>1409.4</ele>
        <time>2022-03-24T23:17:50Z</time>
        <hdop>2</hdop>
        <extensions>
          <osmand:speed>9.1</osmand:speed>
        </extensions>
      </trkpt>
      <trkpt lat="41.75759" lon="-111.82427">
        <ele>1409</ele>
        <time>2022-03-24T23:17:52Z</time>
        <hdop>2</hdop>
        <extensions>
          <osmand:speed>10.1</osmand:speed>
        </extensions>
      </trkpt>
      <trkpt lat="41.757595" lon="-111.82453">
        <ele>1408.5</ele>
        <time>2022-03-24T23:17:54Z</time>
        <hdop>2</hdop>
        <extensions>
          <osmand:speed>10.6</osmand:speed>
        </extensions>
      </trkpt>
      <trkpt lat="41.7576017" lon="-111.8248067">
        <ele>1407.2</ele>
        <time>2022-03-24T23:17:56Z</time>
        <hdop>2</hdop>
        <extensions>
          <osmand:speed>11</osmand:speed>
        </extensions>
      </trkpt>
      <trkpt lat="41.757615" lon="-111.825075">
        <ele>1405.7</ele>
        <time>2022-03-24T23:17:58Z</time>
        <hdop>2</hdop>
        <extensions>
          <osmand:speed>10.8</osmand:speed>
        </extensions>
      </trkpt>
      <trkpt lat="41.75763" lon="-111.8253383">
        <ele>1404.3</ele>
        <time>2022-03-24T23:18:00Z</time>
        <hdop>2</hdop>
        <extensions>
          <osmand:speed>10.7</osmand:speed>
        </extensions>
      </trkpt>
      <trkpt lat="41.75763" lon="-111.82559">
        <ele>1403.2</ele>
        <time>2022-03-24T23:18:02Z</time>
        <hdop>2.1</hdop>
        <extensions>
          <osmand:speed>10.3</osmand:speed>
        </extensions>
      </trkpt>
      <trkpt lat="41.75763" lon="-111.8258467">
        <ele>1401.4</ele>
        <time>2022-03-24T23:18:04Z</time>
        <hdop>2.1</hdop>
        <extensions>
          <osmand:speed>10.1</osmand:speed>
        </extensions>
      </trkpt>
      <trkpt lat="41.7576317" lon="-111.82598">
        <ele>1399.8</ele>
        <time>2022-03-24T23:18:05Z</time>
        <hdop>2.2</hdop>
        <extensions>
          <osmand:speed>10.7</osmand:speed>
        </extensions>
      </trkpt>
      <trkpt lat="41.7576333" lon="-111.8262383">
        <ele>1398</ele>
        <time>2022-03-24T23:18:07Z</time>
        <hdop>2.3</hdop>
        <extensions>
          <osmand:speed>10.5</osmand:speed>
        </extensions>
      </trkpt>
      <trkpt lat="41.7576333" lon="-111.8264833">
        <ele>1397.7</ele>
        <time>2022-03-24T23:18:09Z</time>
        <hdop>2.4</hdop>
        <extensions>
          <osmand:speed>10.1</osmand:speed>
        </extensions>
      </trkpt>
      <trkpt lat="41.7576333" lon="-111.8266017">
        <ele>1397.2</ele>
        <time>2022-03-24T23:18:10Z</time>
        <hdop>2.4</hdop>
        <extensions>
          <osmand:speed>9.9</osmand:speed>
        </extensions>
      </trkpt>
      <trkpt lat="41.75763" lon="-111.82684">
        <ele>1396.6</ele>
        <time>2022-03-24T23:18:12Z</time>
        <hdop>2.5</hdop>
        <extensions>
          <osmand:speed>10.4</osmand:speed>
        </extensions>
      </trkpt>
      <trkpt lat="41.75763" lon="-111.82696">
        <ele>1396.2</ele>
        <time>2022-03-24T23:18:13Z</time>
        <hdop>2.5</hdop>
        <extensions>
          <osmand:speed>10.5</osmand:speed>
        </extensions>
      </trkpt>
      <trkpt lat="41.7576217" lon="-111.82718">
        <ele>1396.1</ele>
        <time>2022-03-24T23:18:15Z</time>
        <hdop>2.5</hdop>
        <extensions>
          <osmand:speed>9.6</osmand:speed>
        </extensions>
      </trkpt>
      <trkpt lat="41.7576133" lon="-111.8274017">
        <ele>1395.7</ele>
        <time>2022-03-24T23:18:17Z</time>
        <hdop>2.5</hdop>
        <extensions>
          <osmand:speed>9.4</osmand:speed>
        </extensions>
      </trkpt>
      <trkpt lat="41.757605" lon="-111.8276117">
        <ele>1395.8</ele>
        <time>2022-03-24T23:18:19Z</time>
        <hdop>2.5</hdop>
        <extensions>
          <osmand:speed>9</osmand:speed>
        </extensions>
      </trkpt>
      <trkpt lat="41.7575967" lon="-111.8277133">
        <ele>1396</ele>
        <time>2022-03-24T23:18:20Z</time>
        <hdop>2.5</hdop>
        <extensions>
          <osmand:speed>9.2</osmand:speed>
        </extensions>
      </trkpt>
      <trkpt lat="41.7575817" lon="-111.8279517">
        <ele>1394.5</ele>
        <time>2022-03-24T23:18:22Z</time>
        <hdop>2.5</hdop>
        <extensions>
          <osmand:speed>9.6</osmand:speed>
        </extensions>
      </trkpt>
      <trkpt lat="41.7575633" lon="-111.8281633">
        <ele>1394.4</ele>
        <time>2022-03-24T23:18:24Z</time>
        <hdop>2.5</hdop>
        <extensions>
          <osmand:speed>8.8</osmand:speed>
        </extensions>
      </trkpt>
      <trkpt lat="41.7575483" lon="-111.8283517">
        <ele>1394.8</ele>
        <time>2022-03-24T23:18:26Z</time>
        <hdop>2.5</hdop>
        <extensions>
          <osmand:speed>7.7</osmand:speed>
        </extensions>
      </trkpt>
      <trkpt lat="41.7575383" lon="-111.82851">
        <ele>1395</ele>
        <time>2022-03-24T23:18:28Z</time>
        <hdop>2.6</hdop>
        <extensions>
          <osmand:speed>6.1</osmand:speed>
        </extensions>
      </trkpt>
      <trkpt lat="41.7575333" lon="-111.8285717">
        <ele>1395.4</ele>
        <time>2022-03-24T23:18:29Z</time>
        <hdop>2.6</hdop>
        <extensions>
          <osmand:speed>5.2</osmand:speed>
        </extensions>
      </trkpt>
      <trkpt lat="41.7575317" lon="-111.8286617">
        <ele>1397.4</ele>
        <time>2022-03-24T23:18:31Z</time>
        <hdop>2.5</hdop>
        <extensions>
          <osmand:speed>3.4</osmand:speed>
        </extensions>
      </trkpt>
      <trkpt lat="41.7575317" lon="-111.8286883">
        <ele>1398</ele>
        <time>2022-03-24T23:18:32Z</time>
        <hdop>2.5</hdop>
        <extensions>
          <osmand:speed>2</osmand:speed>
        </extensions>
      </trkpt>
      <trkpt lat="41.7575617" lon="-111.8287317">
        <ele>1398.2</ele>
        <time>2022-03-24T23:19:39Z</time>
        <hdop>1.3</hdop>
        <extensions>
          <osmand:speed>1.7</osmand:speed>
        </extensions>
      </trkpt>
      <trkpt lat="41.757565" lon="-111.8288083">
        <ele>1398.5</ele>
        <time>2022-03-24T23:19:41Z</time>
        <hdop>1.5</hdop>
        <extensions>
          <osmand:speed>4.8</osmand:speed>
        </extensions>
      </trkpt>
      <trkpt lat="41.757565" lon="-111.8289517">
        <ele>1398.8</ele>
        <time>2022-03-24T23:19:43Z</time>
        <hdop>1.6</hdop>
        <extensions>
          <osmand:speed>6.9</osmand:speed>
        </extensions>
      </trkpt>
      <trkpt lat="41.757575" lon="-111.8291333">
        <ele>1399.1</ele>
        <time>2022-03-24T23:19:45Z</time>
        <hdop>1.7</hdop>
        <extensions>
          <osmand:speed>8.3</osmand:speed>
        </extensions>
      </trkpt>
      <trkpt lat="41.7575933" lon="-111.8293367">
        <ele>1399.3</ele>
        <time>2022-03-24T23:19:47Z</time>
        <hdop>1.7</hdop>
        <extensions>
          <osmand:speed>8.7</osmand:speed>
        </extensions>
      </trkpt>
      <trkpt lat="41.7575983" lon="-111.82944">
        <ele>1399.6</ele>
        <time>2022-03-24T23:19:48Z</time>
        <hdop>1.8</hdop>
        <extensions>
          <osmand:speed>8.4</osmand:speed>
        </extensions>
      </trkpt>
      <trkpt lat="41.7576017" lon="-111.8295383">
        <ele>1400.3</ele>
        <time>2022-03-24T23:19:49Z</time>
        <hdop>1.8</hdop>
        <extensions>
          <osmand:speed>8.2</osmand:speed>
        </extensions>
      </trkpt>
      <trkpt lat="41.7576083" lon="-111.829735">
        <ele>1400.5</ele>
        <time>2022-03-24T23:19:51Z</time>
        <hdop>1.8</hdop>
        <extensions>
          <osmand:speed>7.9</osmand:speed>
        </extensions>
      </trkpt>
      <trkpt lat="41.7576083" lon="-111.829835">
        <ele>1401</ele>
        <time>2022-03-24T23:19:52Z</time>
        <hdop>1.9</hdop>
        <extensions>
          <osmand:speed>8.1</osmand:speed>
        </extensions>
      </trkpt>
      <trkpt lat="41.7576017" lon="-111.8300383">
        <ele>1401.7</ele>
        <time>2022-03-24T23:19:54Z</time>
        <hdop>1.9</hdop>
        <extensions>
          <osmand:speed>8.3</osmand:speed>
        </extensions>
      </trkpt>
      <trkpt lat="41.757595" lon="-111.8301383">
        <ele>1402.2</ele>
        <time>2022-03-24T23:19:55Z</time>
        <hdop>1.9</hdop>
        <extensions>
          <osmand:speed>8.4</osmand:speed>
        </extensions>
      </trkpt>
      <trkpt lat="41.7575983" lon="-111.830345">
        <ele>1402.5</ele>
        <time>2022-03-24T23:19:57Z</time>
        <hdop>2</hdop>
        <extensions>
          <osmand:speed>8.7</osmand:speed>
        </extensions>
      </trkpt>
      <trkpt lat="41.7575933" lon="-111.8304467">
        <ele>1402</ele>
        <time>2022-03-24T23:19:58Z</time>
        <hdop>2</hdop>
        <extensions>
          <osmand:speed>8.5</osmand:speed>
        </extensions>
      </trkpt>
      <trkpt lat="41.7576" lon="-111.8306567">
        <ele>1401</ele>
        <time>2022-03-24T23:20:00Z</time>
        <hdop>2</hdop>
        <extensions>
          <osmand:speed>8.8</osmand:speed>
        </extensions>
      </trkpt>
      <trkpt lat="41.7576067" lon="-111.8307633">
        <ele>1400.4</ele>
        <time>2022-03-24T23:20:01Z</time>
        <hdop>2</hdop>
        <extensions>
          <osmand:speed>8.7</osmand:speed>
        </extensions>
      </trkpt>
      <trkpt lat="41.7576117" lon="-111.83097">
        <ele>1398.7</ele>
        <time>2022-03-24T23:20:03Z</time>
        <hdop>1.9</hdop>
        <extensions>
          <osmand:speed>8.6</osmand:speed>
        </extensions>
      </trkpt>
      <trkpt lat="41.75761" lon="-111.8310717">
        <ele>1398.1</ele>
        <time>2022-03-24T23:20:04Z</time>
        <hdop>1.9</hdop>
        <extensions>
          <osmand:speed>8.5</osmand:speed>
        </extensions>
      </trkpt>
      <trkpt lat="41.7576083" lon="-111.8312717">
        <ele>1397.2</ele>
        <time>2022-03-24T23:20:06Z</time>
        <hdop>1.9</hdop>
        <extensions>
          <osmand:speed>8.5</osmand:speed>
        </extensions>
      </trkpt>
      <trkpt lat="41.75761" lon="-111.83148">
        <ele>1396.4</ele>
        <time>2022-03-24T23:20:08Z</time>
        <hdop>1.9</hdop>
        <extensions>
          <osmand:speed>8.9</osmand:speed>
        </extensions>
      </trkpt>
      <trkpt lat="41.7576117" lon="-111.8316817">
        <ele>1396.4</ele>
        <time>2022-03-24T23:20:10Z</time>
        <hdop>1.9</hdop>
        <extensions>
          <osmand:speed>8.6</osmand:speed>
        </extensions>
      </trkpt>
      <trkpt lat="41.7576183" lon="-111.831885">
        <ele>1396.7</ele>
        <time>2022-03-24T23:20:12Z</time>
        <hdop>1.9</hdop>
        <extensions>
          <osmand:speed>8.5</osmand:speed>
        </extensions>
      </trkpt>
      <trkpt lat="41.75762" lon="-111.831985">
        <ele>1396.5</ele>
        <time>2022-03-24T23:20:13Z</time>
        <hdop>1.9</hdop>
        <extensions>
          <osmand:speed>8.1</osmand:speed>
        </extensions>
      </trkpt>
      <trkpt lat="41.7576183" lon="-111.832085">
        <ele>1396.2</ele>
        <time>2022-03-24T23:20:14Z</time>
        <hdop>1.9</hdop>
        <extensions>
          <osmand:speed>8.3</osmand:speed>
        </extensions>
      </trkpt>
      <trkpt lat="41.7576067" lon="-111.8322967">
        <ele>1395.5</ele>
        <time>2022-03-24T23:20:16Z</time>
        <hdop>1.9</hdop>
        <extensions>
          <osmand:speed>9</osmand:speed>
        </extensions>
      </trkpt>
      <trkpt lat="41.7575983" lon="-111.8325083">
        <ele>1395</ele>
        <time>2022-03-24T23:20:18Z</time>
        <hdop>1.9</hdop>
        <extensions>
          <osmand:speed>9</osmand:speed>
        </extensions>
      </trkpt>
      <trkpt lat="41.7576083" lon="-111.8327333">
        <ele>1394.4</ele>
        <time>2022-03-24T23:20:20Z</time>
        <hdop>1.9</hdop>
        <extensions>
          <osmand:speed>9.4</osmand:speed>
        </extensions>
      </trkpt>
      <trkpt lat="41.7576117" lon="-111.8329617">
        <ele>1393.8</ele>
        <time>2022-03-24T23:20:22Z</time>
        <hdop>1.9</hdop>
        <extensions>
          <osmand:speed>9.2</osmand:speed>
        </extensions>
      </trkpt>
      <trkpt lat="41.7576083" lon="-111.8331967">
        <ele>1393</ele>
        <time>2022-03-24T23:20:24Z</time>
        <hdop>1.9</hdop>
        <extensions>
          <osmand:speed>9.5</osmand:speed>
        </extensions>
      </trkpt>
      <trkpt lat="41.7576033" lon="-111.83331">
        <ele>1393</ele>
        <time>2022-03-24T23:20:25Z</time>
        <hdop>1.9</hdop>
        <extensions>
          <osmand:speed>9.2</osmand:speed>
        </extensions>
      </trkpt>
      <trkpt lat="41.7576033" lon="-111.833525">
        <ele>1393.4</ele>
        <time>2022-03-24T23:20:27Z</time>
        <hdop>1.9</hdop>
        <extensions>
          <osmand:speed>8.5</osmand:speed>
        </extensions>
      </trkpt>
      <trkpt lat="41.7576083" lon="-111.8336233">
        <ele>1393.1</ele>
        <time>2022-03-24T23:20:28Z</time>
        <hdop>1.8</hdop>
        <extensions>
          <osmand:speed>7.5</osmand:speed>
        </extensions>
      </trkpt>
      <trkpt lat="41.75761" lon="-111.833705">
        <ele>1393.4</ele>
        <time>2022-03-24T23:20:29Z</time>
        <hdop>1.8</hdop>
        <extensions>
          <osmand:speed>6.3</osmand:speed>
        </extensions>
      </trkpt>
      <trkpt lat="41.7576117" lon="-111.8338267">
        <ele>1394.4</ele>
        <time>2022-03-24T23:20:31Z</time>
        <hdop>1.9</hdop>
        <extensions>
          <osmand:speed>4</osmand:speed>
        </extensions>
      </trkpt>
      <trkpt lat="41.7576117" lon="-111.8338633">
        <ele>1394.6</ele>
        <time>2022-03-24T23:20:32Z</time>
        <hdop>1.9</hdop>
        <extensions>
          <osmand:speed>3</osmand:speed>
        </extensions>
      </trkpt>
      <trkpt lat="41.7576083" lon="-111.8338983">
        <ele>1395</ele>
        <time>2022-03-24T23:20:34Z</time>
        <hdop>1.9</hdop>
        <extensions>
          <osmand:speed>1</osmand:speed>
        </extensions>
      </trkpt>
      <trkpt lat="41.7576367" lon="-111.8339417">
        <ele>1394.5</ele>
        <time>2022-03-24T23:21:38Z</time>
        <hdop>1.4</hdop>
        <extensions>
          <osmand:speed>3</osmand:speed>
        </extensions>
      </trkpt>
      <trkpt lat="41.7576367" lon="-111.8340467">
        <ele>1394.6</ele>
        <time>2022-03-24T23:21:40Z</time>
        <hdop>1.6</hdop>
        <extensions>
          <osmand:speed>5.2</osmand:speed>
        </extensions>
      </trkpt>
      <trkpt lat="41.757635" lon="-111.8341117">
        <ele>1394.9</ele>
        <time>2022-03-24T23:21:41Z</time>
        <hdop>1.6</hdop>
        <extensions>
          <osmand:speed>6</osmand:speed>
        </extensions>
      </trkpt>
      <trkpt lat="41.7576367" lon="-111.8342867">
        <ele>1395</ele>
        <time>2022-03-24T23:21:43Z</time>
        <hdop>1.7</hdop>
        <extensions>
          <osmand:speed>8</osmand:speed>
        </extensions>
      </trkpt>
      <trkpt lat="41.7576417" lon="-111.8344933">
        <ele>1394.8</ele>
        <time>2022-03-24T23:21:45Z</time>
        <hdop>1.7</hdop>
        <extensions>
          <osmand:speed>8.9</osmand:speed>
        </extensions>
      </trkpt>
      <trkpt lat="41.757645" lon="-111.834605">
        <ele>1394.8</ele>
        <time>2022-03-24T23:21:46Z</time>
        <hdop>1.8</hdop>
        <extensions>
          <osmand:speed>9.4</osmand:speed>
        </extensions>
      </trkpt>
      <trkpt lat="41.757645" lon="-111.834845">
        <ele>1394.7</ele>
        <time>2022-03-24T23:21:48Z</time>
        <hdop>1.9</hdop>
        <extensions>
          <osmand:speed>10</osmand:speed>
        </extensions>
      </trkpt>
      <trkpt lat="41.7576483" lon="-111.8349717">
        <ele>1394.6</ele>
        <time>2022-03-24T23:21:49Z</time>
        <hdop>1.9</hdop>
        <extensions>
          <osmand:speed>10.4</osmand:speed>
        </extensions>
      </trkpt>
      <trkpt lat="41.75765" lon="-111.8352383">
        <ele>1393.7</ele>
        <time>2022-03-24T23:21:51Z</time>
        <hdop>1.9</hdop>
        <extensions>
          <osmand:speed>10.9</osmand:speed>
        </extensions>
      </trkpt>
      <trkpt lat="41.7576567" lon="-111.83552">
        <ele>1392.6</ele>
        <time>2022-03-24T23:21:53Z</time>
        <hdop>2</hdop>
        <extensions>
          <osmand:speed>11.4</osmand:speed>
        </extensions>
      </trkpt>
      <trkpt lat="41.75766" lon="-111.83579">
        <ele>1392</ele>
        <time>2022-03-24T23:21:55Z</time>
        <hdop>2</hdop>
        <extensions>
          <osmand:speed>10.6</osmand:speed>
        </extensions>
      </trkpt>
      <trkpt lat="41.757655" lon="-111.836045">
        <ele>1391.3</ele>
        <time>2022-03-24T23:21:57Z</time>
        <hdop>2.1</hdop>
        <extensions>
          <osmand:speed>10.1</osmand:speed>
        </extensions>
      </trkpt>
      <trkpt lat="41.7576467" lon="-111.8361617">
        <ele>1391.3</ele>
        <time>2022-03-24T23:21:58Z</time>
        <hdop>2.1</hdop>
        <extensions>
          <osmand:speed>9.5</osmand:speed>
        </extensions>
      </trkpt>
      <trkpt lat="41.7576367" lon="-111.836275">
        <ele>1390.8</ele>
        <time>2022-03-24T23:21:59Z</time>
        <hdop>2</hdop>
        <extensions>
          <osmand:speed>8.6</osmand:speed>
        </extensions>
      </trkpt>
      <trkpt lat="41.757625" lon="-111.8364467">
        <ele>1390.9</ele>
        <time>2022-03-24T23:22:01Z</time>
        <hdop>2</hdop>
        <extensions>
          <osmand:speed>5.6</osmand:speed>
        </extensions>
      </trkpt>
      <trkpt lat="41.7576183" lon="-111.8365233">
        <ele>1390.7</ele>
        <time>2022-03-24T23:22:03Z</time>
        <hdop>2</hdop>
        <extensions>
          <osmand:speed>2</osmand:speed>
        </extensions>
      </trkpt>
      <trkpt lat="41.7576067" lon="-111.83657">
        <ele>1391.1</ele>
        <time>2022-03-24T23:22:16Z</time>
        <hdop>1.8</hdop>
        <extensions>
          <osmand:speed>1.4</osmand:speed>
        </extensions>
      </trkpt>
      <trkpt lat="41.7575667" lon="-111.836565">
        <ele>1391.4</ele>
        <time>2022-03-24T23:22:18Z</time>
        <hdop>2</hdop>
        <extensions>
          <osmand:speed>2.6</osmand:speed>
        </extensions>
      </trkpt>
      <trkpt lat="41.7575267" lon="-111.8365533">
        <ele>1391.6</ele>
        <time>2022-03-24T23:22:19Z</time>
        <hdop>2</hdop>
        <extensions>
          <osmand:speed>3.8</osmand:speed>
        </extensions>
      </trkpt>
      <trkpt lat="41.7574317" lon="-111.83654">
        <ele>1392</ele>
        <time>2022-03-24T23:22:21Z</time>
        <hdop>1.9</hdop>
        <extensions>
          <osmand:speed>4.9</osmand:speed>
        </extensions>
      </trkpt>
      <trkpt lat="41.7573833" lon="-111.8365333">
        <ele>1392.2</ele>
        <time>2022-03-24T23:22:22Z</time>
        <hdop>1.9</hdop>
        <extensions>
          <osmand:speed>4.9</osmand:speed>
        </extensions>
      </trkpt>
      <trkpt lat="41.7572983" lon="-111.8365217">
        <ele>1392.2</ele>
        <time>2022-03-24T23:22:24Z</time>
        <hdop>2</hdop>
        <extensions>
          <osmand:speed>3.7</osmand:speed>
        </extensions>
      </trkpt>
      <trkpt lat="41.7572683" lon="-111.8365217">
        <ele>1392.3</ele>
        <time>2022-03-24T23:22:25Z</time>
        <hdop>2.1</hdop>
        <extensions>
          <osmand:speed>2.8</osmand:speed>
        </extensions>
      </trkpt>
      <trkpt lat="41.7572217" lon="-111.8365233">
        <ele>1392.6</ele>
        <time>2022-03-24T23:22:27Z</time>
        <hdop>2.2</hdop>
        <extensions>
          <osmand:speed>2.2</osmand:speed>
        </extensions>
      </trkpt>
      <trkpt lat="41.7572033" lon="-111.836525">
        <ele>1392.9</ele>
        <time>2022-03-24T23:22:28Z</time>
        <hdop>2.2</hdop>
        <extensions>
          <osmand:speed>2.2</osmand:speed>
        </extensions>
      </trkpt>
      <trkpt lat="41.7571833" lon="-111.8365317">
        <ele>1393.2</ele>
        <time>2022-03-24T23:22:29Z</time>
        <hdop>2.2</hdop>
        <extensions>
          <osmand:speed>2.4</osmand:speed>
        </extensions>
      </trkpt>
      <trkpt lat="41.757135" lon="-111.8365517">
        <ele>1393</ele>
        <time>2022-03-24T23:22:31Z</time>
        <hdop>2.1</hdop>
        <extensions>
          <osmand:speed>2.1</osmand:speed>
        </extensions>
      </trkpt>
      <trkpt lat="41.7570933" lon="-111.83656">
        <ele>1392.8</ele>
        <time>2022-03-24T23:22:33Z</time>
        <hdop>2.2</hdop>
        <extensions>
          <osmand:speed>1.8</osmand:speed>
        </extensions>
      </trkpt>
      <trkpt lat="41.757065" lon="-111.8365633">
        <ele>1392.5</ele>
        <time>2022-03-24T23:22:34Z</time>
        <hdop>2.2</hdop>
        <extensions>
          <osmand:speed>2.7</osmand:speed>
        </extensions>
      </trkpt>
      <trkpt lat="41.7570217" lon="-111.83657">
        <ele>1392.5</ele>
        <time>2022-03-24T23:22:36Z</time>
        <hdop>2.3</hdop>
        <extensions>
          <osmand:speed>2.5</osmand:speed>
        </extensions>
      </trkpt>
      <trkpt lat="41.7570033" lon="-111.8365683">
        <ele>1392.7</ele>
        <time>2022-03-24T23:22:37Z</time>
        <hdop>2.4</hdop>
        <extensions>
          <osmand:speed>2.1</osmand:speed>
        </extensions>
      </trkpt>
      <trkpt lat="41.7569667" lon="-111.83655">
        <ele>1393.1</ele>
        <time>2022-03-24T23:22:39Z</time>
        <hdop>2.4</hdop>
        <extensions>
          <osmand:speed>2.2</osmand:speed>
        </extensions>
      </trkpt>
      <trkpt lat="41.7569383" lon="-111.8365433">
        <ele>1393.6</ele>
        <time>2022-03-24T23:22:40Z</time>
        <hdop>2.4</hdop>
        <extensions>
          <osmand:speed>3.3</osmand:speed>
        </extensions>
      </trkpt>
      <trkpt lat="41.7569" lon="-111.8365317">
        <ele>1393.7</ele>
        <time>2022-03-24T23:22:41Z</time>
        <hdop>2.3</hdop>
        <extensions>
          <osmand:speed>3.5</osmand:speed>
        </extensions>
      </trkpt>
      <trkpt lat="41.7568317" lon="-111.8364867">
        <ele>1394.3</ele>
        <time>2022-03-24T23:22:43Z</time>
        <hdop>2.2</hdop>
        <extensions>
          <osmand:speed>4.6</osmand:speed>
        </extensions>
      </trkpt>
      <trkpt lat="41.756795" lon="-111.8363983">
        <ele>1395.5</ele>
        <time>2022-03-24T23:22:45Z</time>
        <hdop>2.3</hdop>
        <extensions>
          <osmand:speed>3.7</osmand:speed>
        </extensions>
      </trkpt>
      <trkpt lat="41.7567867" lon="-111.83635">
        <ele>1397.1</ele>
        <time>2022-03-24T23:22:46Z</time>
        <hdop>2.2</hdop>
        <extensions>
          <osmand:speed>3.4</osmand:speed>
        </extensions>
      </trkpt>
      <trkpt lat="41.75678" lon="-111.8362617">
        <ele>1399.8</ele>
        <time>2022-03-24T23:22:48Z</time>
        <hdop>2.1</hdop>
        <extensions>
          <osmand:speed>2.7</osmand:speed>
        </extensions>
      </trkpt>
      <trkpt lat="41.75677" lon="-111.8362283">
        <ele>1400.1</ele>
        <time>2022-03-24T23:22:49Z</time>
        <hdop>2</hdop>
        <extensions>
          <osmand:speed>2.6</osmand:speed>
        </extensions>
      </trkpt>
      <trkpt lat="41.756735" lon="-111.8362">
        <ele>1400.3</ele>
        <time>2022-03-24T23:22:51Z</time>
        <hdop>2</hdop>
        <extensions>
          <osmand:speed>1.6</osmand:speed>
        </extensions>
      </trkpt>
      <trkpt lat="41.7567167" lon="-111.8361967">
        <ele>1400.8</ele>
        <time>2022-03-24T23:22:54Z</time>
        <hdop>1.8</hdop>
      </trkpt>
      <trkpt lat="41.7567433" lon="-111.836215">
        <ele>1399.6</ele>
        <time>2022-03-24T23:23:29Z</time>
        <hdop>1.4</hdop>
        <extensions>
          <osmand:speed>1.4</osmand:speed>
        </extensions>
      </trkpt>
      <trkpt lat="41.7567483" lon="-111.8362417">
        <ele>1399.3</ele>
        <time>2022-03-24T23:23:31Z</time>
        <hdop>1.6</hdop>
        <extensions>
          <osmand:speed>1.6</osmand:speed>
        </extensions>
      </trkpt>
      <trkpt lat="41.7567467" lon="-111.8362733">
        <ele>1399.2</ele>
        <time>2022-03-24T23:23:33Z</time>
        <hdop>1.7</hdop>
        <extensions>
          <osmand:speed>1.6</osmand:speed>
        </extensions>
      </trkpt>
      <trkpt lat="41.75675" lon="-111.836305">
        <ele>1399.1</ele>
        <time>2022-03-24T23:23:35Z</time>
        <hdop>1.8</hdop>
        <extensions>
          <osmand:speed>1.5</osmand:speed>
        </extensions>
      </trkpt>
      <trkpt lat="41.7567533" lon="-111.8363383">
        <ele>1399.1</ele>
        <time>2022-03-24T23:23:37Z</time>
        <hdop>1.6</hdop>
        <extensions>
          <osmand:speed>1.6</osmand:speed>
        </extensions>
      </trkpt>
      <trkpt lat="41.7567667" lon="-111.8363767">
        <ele>1398.9</ele>
        <time>2022-03-24T23:23:39Z</time>
        <hdop>1.6</hdop>
        <extensions>
          <osmand:speed>1.6</osmand:speed>
        </extensions>
      </trkpt>
      <trkpt lat="41.756775" lon="-111.8364133">
        <ele>1398.7</ele>
        <time>2022-03-24T23:23:41Z</time>
        <hdop>1.6</hdop>
        <extensions>
          <osmand:speed>1.4</osmand:speed>
        </extensions>
      </trkpt>
    </trkseg>
    <trkseg>
      <trkpt lat="41.7567367" lon="-111.8363217">
        <ele>1393.8</ele>
        <time>2022-03-24T23:49:24Z</time>
        <hdop>5.9</hdop>
        <extensions>
          <osmand:speed>0.8</osmand:speed>
        </extensions>
      </trkpt>
      <trkpt lat="41.7566817" lon="-111.8364">
        <ele>1387.8</ele>
        <time>2022-03-24T23:49:25Z</time>
        <hdop>3.9</hdop>
        <extensions>
          <osmand:speed>0.9</osmand:speed>
        </extensions>
      </trkpt>
      <trkpt lat="41.7566783" lon="-111.836365">
        <ele>1399.5</ele>
        <time>2022-03-24T23:49:26Z</time>
        <hdop>3.7</hdop>
        <extensions>
          <osmand:speed>1</osmand:speed>
        </extensions>
      </trkpt>
      <trkpt lat="41.75664" lon="-111.83635">
        <ele>1408.2</ele>
        <time>2022-03-24T23:49:28Z</time>
        <hdop>3.2</hdop>
        <extensions>
          <osmand:speed>1.1</osmand:speed>
        </extensions>
      </trkpt>
      <trkpt lat="41.7566067" lon="-111.8363517">
        <ele>1407.7</ele>
        <time>2022-03-24T23:49:30Z</time>
        <hdop>3</hdop>
        <extensions>
          <osmand:speed>1</osmand:speed>
        </extensions>
      </trkpt>
      <trkpt lat="41.7565833" lon="-111.8363683">
        <ele>1407.4</ele>
        <time>2022-03-24T23:49:32Z</time>
        <hdop>2.7</hdop>
        <extensions>
          <osmand:speed>1</osmand:speed>
        </extensions>
      </trkpt>
      <trkpt lat="41.756565" lon="-111.8363817">
        <ele>1409.4</ele>
        <time>2022-03-24T23:49:35Z</time>
        <hdop>2.4</hdop>
        <extensions>
          <osmand:speed>1</osmand:speed>
        </extensions>
      </trkpt>
      <trkpt lat="41.7565483" lon="-111.836355">
        <ele>1410.1</ele>
        <time>2022-03-24T23:49:36Z</time>
        <hdop>2.2</hdop>
        <extensions>
          <osmand:speed>1</osmand:speed>
        </extensions>
      </trkpt>
      <trkpt lat="41.75654" lon="-111.8363767">
        <ele>1405.8</ele>
        <time>2022-03-24T23:49:40Z</time>
        <hdop>2.2</hdop>
        <extensions>
          <osmand:speed>0.7</osmand:speed>
        </extensions>
      </trkpt>
      <trkpt lat="41.7565367" lon="-111.836345">
        <ele>1404.5</ele>
        <time>2022-03-24T23:49:43Z</time>
        <hdop>2.1</hdop>
        <extensions>
          <osmand:speed>1</osmand:speed>
        </extensions>
      </trkpt>
      <trkpt lat="41.7565317" lon="-111.83632">
        <ele>1404.6</ele>
        <time>2022-03-24T23:49:46Z</time>
        <hdop>2.1</hdop>
        <extensions>
          <osmand:speed>0.8</osmand:speed>
        </extensions>
      </trkpt>
      <trkpt lat="41.7565583" lon="-111.8362917">
        <ele>1403.9</ele>
        <time>2022-03-24T23:49:50Z</time>
        <hdop>2</hdop>
        <extensions>
          <osmand:speed>0.9</osmand:speed>
        </extensions>
      </trkpt>
      <trkpt lat="41.75658" lon="-111.8362833">
        <ele>1404.3</ele>
        <time>2022-03-24T23:49:52Z</time>
        <hdop>2.1</hdop>
        <extensions>
          <osmand:speed>1</osmand:speed>
        </extensions>
      </trkpt>
      <trkpt lat="41.7565983" lon="-111.8362767">
        <ele>1404.6</ele>
        <time>2022-03-24T23:49:54Z</time>
        <hdop>2.2</hdop>
        <extensions>
          <osmand:speed>1.1</osmand:speed>
        </extensions>
      </trkpt>
      <trkpt lat="41.7566167" lon="-111.8362483">
        <ele>1404.2</ele>
        <time>2022-03-24T23:49:56Z</time>
        <hdop>2.2</hdop>
        <extensions>
          <osmand:speed>1.2</osmand:speed>
        </extensions>
      </trkpt>
      <trkpt lat="41.7566317" lon="-111.8362117">
        <ele>1403.4</ele>
        <time>2022-03-24T23:49:58Z</time>
        <hdop>2</hdop>
        <extensions>
          <osmand:speed>1.1</osmand:speed>
        </extensions>
      </trkpt>
      <trkpt lat="41.7566367" lon="-111.83618">
        <ele>1403</ele>
        <time>2022-03-24T23:50:02Z</time>
        <hdop>2</hdop>
        <extensions>
          <osmand:speed>0.6</osmand:speed>
        </extensions>
      </trkpt>
      <trkpt lat="41.7566483" lon="-111.8361583">
        <ele>1402.2</ele>
        <time>2022-03-24T23:50:05Z</time>
        <hdop>1.9</hdop>
      </trkpt>
      <trkpt lat="41.7566067" lon="-111.8361417">
        <ele>1397.2</ele>
        <time>2022-03-24T23:50:54Z</time>
        <hdop>2</hdop>
        <extensions>
          <osmand:speed>0.3</osmand:speed>
        </extensions>
      </trkpt>
      <trkpt lat="41.7565933" lon="-111.836125">
        <ele>1397.2</ele>
        <time>2022-03-24T23:50:56Z</time>
        <hdop>2</hdop>
        <extensions>
          <osmand:speed>0.4</osmand:speed>
        </extensions>
      </trkpt>
      <trkpt lat="41.756585" lon="-111.8360917">
        <ele>1397</ele>
        <time>2022-03-24T23:50:58Z</time>
        <hdop>2</hdop>
        <extensions>
          <osmand:speed>0.6</osmand:speed>
        </extensions>
      </trkpt>
      <trkpt lat="41.7565767" lon="-111.83607">
        <ele>1396.9</ele>
        <time>2022-03-24T23:50:59Z</time>
        <hdop>2</hdop>
        <extensions>
          <osmand:speed>0.7</osmand:speed>
        </extensions>
      </trkpt>
      <trkpt lat="41.7565717" lon="-111.8360117">
        <ele>1396.8</ele>
        <time>2022-03-24T23:51:01Z</time>
        <hdop>2</hdop>
        <extensions>
          <osmand:speed>1.2</osmand:speed>
        </extensions>
      </trkpt>
      <trkpt lat="41.7565767" lon="-111.8359367">
        <ele>1396.8</ele>
        <time>2022-03-24T23:51:03Z</time>
        <hdop>2.1</hdop>
        <extensions>
          <osmand:speed>1.8</osmand:speed>
        </extensions>
      </trkpt>
      <trkpt lat="41.75659" lon="-111.83584">
        <ele>1396.6</ele>
        <time>2022-03-24T23:51:05Z</time>
        <hdop>2.2</hdop>
        <extensions>
          <osmand:speed>2.5</osmand:speed>
        </extensions>
      </trkpt>
      <trkpt lat="41.7566017" lon="-111.8357467">
        <ele>1397.2</ele>
        <time>2022-03-24T23:51:07Z</time>
        <hdop>2.3</hdop>
        <extensions>
          <osmand:speed>3</osmand:speed>
        </extensions>
      </trkpt>
      <trkpt lat="41.7566083" lon="-111.8356433">
        <ele>1397.8</ele>
        <time>2022-03-24T23:51:09Z</time>
        <hdop>2.4</hdop>
        <extensions>
          <osmand:speed>3.5</osmand:speed>
        </extensions>
      </trkpt>
      <trkpt lat="41.7566117" lon="-111.8356067">
        <ele>1397.8</ele>
        <time>2022-03-24T23:51:10Z</time>
        <hdop>2.4</hdop>
        <extensions>
          <osmand:speed>3.6</osmand:speed>
        </extensions>
      </trkpt>
      <trkpt lat="41.7566067" lon="-111.8355433">
        <ele>1398.4</ele>
        <time>2022-03-24T23:51:12Z</time>
        <hdop>2.3</hdop>
        <extensions>
          <osmand:speed>3.4</osmand:speed>
        </extensions>
      </trkpt>
      <trkpt lat="41.7565983" lon="-111.8354967">
        <ele>1399.2</ele>
        <time>2022-03-24T23:51:14Z</time>
        <hdop>2.3</hdop>
        <extensions>
          <osmand:speed>3</osmand:speed>
        </extensions>
      </trkpt>
      <trkpt lat="41.756595" lon="-111.83542">
        <ele>1400</ele>
        <time>2022-03-24T23:51:16Z</time>
        <hdop>2.2</hdop>
        <extensions>
          <osmand:speed>2.8</osmand:speed>
        </extensions>
      </trkpt>
      <trkpt lat="41.7565933" lon="-111.8353217">
        <ele>1400.1</ele>
        <time>2022-03-24T23:51:18Z</time>
        <hdop>2.3</hdop>
        <extensions>
          <osmand:speed>2.9</osmand:speed>
        </extensions>
      </trkpt>
      <trkpt lat="41.756585" lon="-111.8352">
        <ele>1400.2</ele>
        <time>2022-03-24T23:51:20Z</time>
        <hdop>2.3</hdop>
        <extensions>
          <osmand:speed>3.2</osmand:speed>
        </extensions>
      </trkpt>
      <trkpt lat="41.7565767" lon="-111.83505">
        <ele>1399.5</ele>
        <time>2022-03-24T23:51:22Z</time>
        <hdop>2.4</hdop>
        <extensions>
          <osmand:speed>3.9</osmand:speed>
        </extensions>
      </trkpt>
      <trkpt lat="41.7565667" lon="-111.8348933">
        <ele>1398.3</ele>
        <time>2022-03-24T23:51:24Z</time>
        <hdop>2.4</hdop>
        <extensions>
          <osmand:speed>4.5</osmand:speed>
        </extensions>
      </trkpt>
      <trkpt lat="41.7565583" lon="-111.8347567">
        <ele>1398</ele>
        <time>2022-03-24T23:51:26Z</time>
        <hdop>2.5</hdop>
        <extensions>
          <osmand:speed>5</osmand:speed>
        </extensions>
      </trkpt>
      <trkpt lat="41.7565417" lon="-111.8346483">
        <ele>1397.8</ele>
        <time>2022-03-24T23:51:28Z</time>
        <hdop>2.6</hdop>
        <extensions>
          <osmand:speed>5.1</osmand:speed>
        </extensions>
      </trkpt>
      <trkpt lat="41.756545" lon="-111.8346133">
        <ele>1398</ele>
        <time>2022-03-24T23:51:29Z</time>
        <hdop>2.6</hdop>
        <extensions>
          <osmand:speed>5</osmand:speed>
        </extensions>
      </trkpt>
      <trkpt lat="41.7565267" lon="-111.834585">
        <ele>1397.6</ele>
        <time>2022-03-24T23:51:38Z</time>
        <hdop>1.6</hdop>
        <extensions>
          <osmand:speed>1.1</osmand:speed>
        </extensions>
      </trkpt>
      <trkpt lat="41.7564833" lon="-111.8345467">
        <ele>1397</ele>
        <time>2022-03-24T23:51:40Z</time>
        <hdop>1.9</hdop>
        <extensions>
          <osmand:speed>0.8</osmand:speed>
        </extensions>
      </trkpt>
      <trkpt lat="41.7564083" lon="-111.8345383">
        <ele>1396.4</ele>
        <time>2022-03-24T23:51:42Z</time>
        <hdop>2</hdop>
        <extensions>
          <osmand:speed>1.6</osmand:speed>
        </extensions>
      </trkpt>
      <trkpt lat="41.756365" lon="-111.83454">
        <ele>1396.3</ele>
        <time>2022-03-24T23:51:43Z</time>
        <hdop>2.1</hdop>
        <extensions>
          <osmand:speed>2.1</osmand:speed>
        </extensions>
      </trkpt>
      <trkpt lat="41.7562667" lon="-111.8345417">
        <ele>1395.9</ele>
        <time>2022-03-24T23:51:45Z</time>
        <hdop>2.2</hdop>
        <extensions>
          <osmand:speed>3.1</osmand:speed>
        </extensions>
      </trkpt>
      <trkpt lat="41.756155" lon="-111.8345367">
        <ele>1395.5</ele>
        <time>2022-03-24T23:51:47Z</time>
        <hdop>2.3</hdop>
        <extensions>
          <osmand:speed>4.3</osmand:speed>
        </extensions>
      </trkpt>
      <trkpt lat="41.756035" lon="-111.8345267">
        <ele>1395.2</ele>
        <time>2022-03-24T23:51:49Z</time>
        <hdop>2.3</hdop>
        <extensions>
          <osmand:speed>5.4</osmand:speed>
        </extensions>
      </trkpt>
      <trkpt lat="41.7559117" lon="-111.8344983">
        <ele>1395.2</ele>
        <time>2022-03-24T23:51:51Z</time>
        <hdop>2.4</hdop>
        <extensions>
          <osmand:speed>6</osmand:speed>
        </extensions>
      </trkpt>
      <trkpt lat="41.75585" lon="-111.8344867">
        <ele>1395.4</ele>
        <time>2022-03-24T23:51:52Z</time>
        <hdop>2.4</hdop>
        <extensions>
          <osmand:speed>6.2</osmand:speed>
        </extensions>
      </trkpt>
      <trkpt lat="41.755785" lon="-111.8344783">
        <ele>1395</ele>
        <time>2022-03-24T23:51:53Z</time>
        <hdop>2.4</hdop>
        <extensions>
          <osmand:speed>6.5</osmand:speed>
        </extensions>
      </trkpt>
      <trkpt lat="41.7556333" lon="-111.8344633">
        <ele>1395.5</ele>
        <time>2022-03-24T23:51:55Z</time>
        <hdop>2.3</hdop>
        <extensions>
          <osmand:speed>7.2</osmand:speed>
        </extensions>
      </trkpt>
      <trkpt lat="41.7554883" lon="-111.8344483">
        <ele>1396.5</ele>
        <time>2022-03-24T23:51:57Z</time>
        <hdop>2.2</hdop>
        <extensions>
          <osmand:speed>7.1</osmand:speed>
        </extensions>
      </trkpt>
      <trkpt lat="41.7553533" lon="-111.83445">
        <ele>1396.5</ele>
        <time>2022-03-24T23:51:59Z</time>
        <hdop>2.2</hdop>
        <extensions>
          <osmand:speed>7.3</osmand:speed>
        </extensions>
      </trkpt>
      <trkpt lat="41.75521" lon="-111.8344417">
        <ele>1396.1</ele>
        <time>2022-03-24T23:52:01Z</time>
        <hdop>2.2</hdop>
        <extensions>
          <osmand:speed>7.6</osmand:speed>
        </extensions>
      </trkpt>
      <trkpt lat="41.755075" lon="-111.83443">
        <ele>1395.6</ele>
        <time>2022-03-24T23:52:03Z</time>
        <hdop>2.2</hdop>
        <extensions>
          <osmand:speed>7.3</osmand:speed>
        </extensions>
      </trkpt>
      <trkpt lat="41.7550083" lon="-111.8344283">
        <ele>1395.1</ele>
        <time>2022-03-24T23:52:04Z</time>
        <hdop>2.2</hdop>
        <extensions>
          <osmand:speed>7.3</osmand:speed>
        </extensions>
      </trkpt>
      <trkpt lat="41.7549417" lon="-111.8344317">
        <ele>1394.8</ele>
        <time>2022-03-24T23:52:05Z</time>
        <hdop>2.2</hdop>
        <extensions>
          <osmand:speed>7.3</osmand:speed>
        </extensions>
      </trkpt>
      <trkpt lat="41.7548167" lon="-111.8344383">
        <ele>1394.3</ele>
        <time>2022-03-24T23:52:07Z</time>
        <hdop>2.2</hdop>
        <extensions>
          <osmand:speed>6.3</osmand:speed>
        </extensions>
      </trkpt>
      <trkpt lat="41.7547117" lon="-111.8344383">
        <ele>1394.4</ele>
        <time>2022-03-24T23:52:09Z</time>
        <hdop>2.2</hdop>
        <extensions>
          <osmand:speed>5.5</osmand:speed>
        </extensions>
      </trkpt>
      <trkpt lat="41.754635" lon="-111.8344333">
        <ele>1395.5</ele>
        <time>2022-03-24T23:52:11Z</time>
        <hdop>2.2</hdop>
        <extensions>
          <osmand:speed>4.2</osmand:speed>
        </extensions>
      </trkpt>
      <trkpt lat="41.75457" lon="-111.8344317">
        <ele>1396.2</ele>
        <time>2022-03-24T23:52:13Z</time>
        <hdop>2.2</hdop>
        <extensions>
          <osmand:speed>3.3</osmand:speed>
        </extensions>
      </trkpt>
      <trkpt lat="41.7545217" lon="-111.8344317">
        <ele>1396.9</ele>
        <time>2022-03-24T23:52:15Z</time>
        <hdop>2.2</hdop>
        <extensions>
          <osmand:speed>2.6</osmand:speed>
        </extensions>
      </trkpt>
      <trkpt lat="41.7545017" lon="-111.8344283">
        <ele>1397.5</ele>
        <time>2022-03-24T23:52:16Z</time>
        <hdop>2.2</hdop>
        <extensions>
          <osmand:speed>2.2</osmand:speed>
        </extensions>
      </trkpt>
      <trkpt lat="41.7544783" lon="-111.8344233">
        <ele>1398.7</ele>
        <time>2022-03-24T23:52:18Z</time>
        <hdop>2.2</hdop>
        <extensions>
          <osmand:speed>1.3</osmand:speed>
        </extensions>
      </trkpt>
      <trkpt lat="41.7544583" lon="-111.8344167">
        <ele>1399.6</ele>
        <time>2022-03-24T23:52:20Z</time>
        <hdop>2.2</hdop>
      </trkpt>
      <trkpt lat="41.7544333" lon="-111.834395">
        <ele>1398.1</ele>
        <time>2022-03-24T23:53:48Z</time>
        <hdop>1.6</hdop>
        <extensions>
          <osmand:speed>2.1</osmand:speed>
        </extensions>
      </trkpt>
      <trkpt lat="41.7544167" lon="-111.8343667">
        <ele>1398.2</ele>
        <time>2022-03-24T23:53:49Z</time>
        <hdop>1.6</hdop>
        <extensions>
          <osmand:speed>3.4</osmand:speed>
        </extensions>
      </trkpt>
      <trkpt lat="41.7543817" lon="-111.834255">
        <ele>1398.8</ele>
        <time>2022-03-24T23:53:51Z</time>
        <hdop>1.8</hdop>
        <extensions>
          <osmand:speed>5.8</osmand:speed>
        </extensions>
      </trkpt>
      <trkpt lat="41.7543567" lon="-111.8341083">
        <ele>1399.7</ele>
        <time>2022-03-24T23:53:53Z</time>
        <hdop>1.9</hdop>
        <extensions>
          <osmand:speed>6.4</osmand:speed>
        </extensions>
      </trkpt>
      <trkpt lat="41.7543417" lon="-111.8339467">
        <ele>1400.6</ele>
        <time>2022-03-24T23:53:55Z</time>
        <hdop>1.9</hdop>
        <extensions>
          <osmand:speed>7</osmand:speed>
        </extensions>
      </trkpt>
      <trkpt lat="41.7543283" lon="-111.8337667">
        <ele>1400.7</ele>
        <time>2022-03-24T23:53:57Z</time>
        <hdop>1.9</hdop>
        <extensions>
          <osmand:speed>7.7</osmand:speed>
        </extensions>
      </trkpt>
      <trkpt lat="41.7542983" lon="-111.833575">
        <ele>1401.4</ele>
        <time>2022-03-24T23:53:59Z</time>
        <hdop>1.9</hdop>
        <extensions>
          <osmand:speed>7.9</osmand:speed>
        </extensions>
      </trkpt>
      <trkpt lat="41.7542667" lon="-111.8333867">
        <ele>1402</ele>
        <time>2022-03-24T23:54:01Z</time>
        <hdop>2</hdop>
        <extensions>
          <osmand:speed>7.9</osmand:speed>
        </extensions>
      </trkpt>
      <trkpt lat="41.7542533" lon="-111.8332883">
        <ele>1402</ele>
        <time>2022-03-24T23:54:02Z</time>
        <hdop>2</hdop>
        <extensions>
          <osmand:speed>8</osmand:speed>
        </extensions>
      </trkpt>
      <trkpt lat="41.754245" lon="-111.83309">
        <ele>1401.6</ele>
        <time>2022-03-24T23:54:04Z</time>
        <hdop>2</hdop>
        <extensions>
          <osmand:speed>8.2</osmand:speed>
        </extensions>
      </trkpt>
      <trkpt lat="41.75424" lon="-111.8328883">
        <ele>1401</ele>
        <time>2022-03-24T23:54:06Z</time>
        <hdop>2</hdop>
        <extensions>
          <osmand:speed>8.1</osmand:speed>
        </extensions>
      </trkpt>
      <trkpt lat="41.754235" lon="-111.832695">
        <ele>1401</ele>
        <time>2022-03-24T23:54:08Z</time>
        <hdop>2</hdop>
        <extensions>
          <osmand:speed>7.8</osmand:speed>
        </extensions>
      </trkpt>
      <trkpt lat="41.7542333" lon="-111.8325067">
        <ele>1401.2</ele>
        <time>2022-03-24T23:54:10Z</time>
        <hdop>2</hdop>
        <extensions>
          <osmand:speed>7.7</osmand:speed>
        </extensions>
      </trkpt>
      <trkpt lat="41.75423" lon="-111.8324183">
        <ele>1401.5</ele>
        <time>2022-03-24T23:54:11Z</time>
        <hdop>2</hdop>
        <extensions>
          <osmand:speed>7.4</osmand:speed>
        </extensions>
      </trkpt>
      <trkpt lat="41.75422" lon="-111.832235">
        <ele>1401.2</ele>
        <time>2022-03-24T23:54:13Z</time>
        <hdop>2</hdop>
        <extensions>
          <osmand:speed>7.7</osmand:speed>
        </extensions>
      </trkpt>
      <trkpt lat="41.7542117" lon="-111.8320617">
        <ele>1402.3</ele>
        <time>2022-03-24T23:54:15Z</time>
        <hdop>2</hdop>
        <extensions>
          <osmand:speed>7.5</osmand:speed>
        </extensions>
      </trkpt>
      <trkpt lat="41.7542083" lon="-111.8319717">
        <ele>1402.2</ele>
        <time>2022-03-24T23:54:16Z</time>
        <hdop>2</hdop>
        <extensions>
          <osmand:speed>7.7</osmand:speed>
        </extensions>
      </trkpt>
      <trkpt lat="41.7542" lon="-111.831795">
        <ele>1402.6</ele>
        <time>2022-03-24T23:54:18Z</time>
        <hdop>1.9</hdop>
        <extensions>
          <osmand:speed>7.5</osmand:speed>
        </extensions>
      </trkpt>
      <trkpt lat="41.7541933" lon="-111.831705">
        <ele>1402.6</ele>
        <time>2022-03-24T23:54:19Z</time>
        <hdop>1.9</hdop>
        <extensions>
          <osmand:speed>7.6</osmand:speed>
        </extensions>
      </trkpt>
      <trkpt lat="41.7541883" lon="-111.83152">
        <ele>1402.4</ele>
        <time>2022-03-24T23:54:21Z</time>
        <hdop>2</hdop>
        <extensions>
          <osmand:speed>7.7</osmand:speed>
        </extensions>
      </trkpt>
      <trkpt lat="41.754185" lon="-111.8314233">
        <ele>1402.1</ele>
        <time>2022-03-24T23:54:22Z</time>
        <hdop>2</hdop>
        <extensions>
          <osmand:speed>7.9</osmand:speed>
        </extensions>
      </trkpt>
      <trkpt lat="41.7541767" lon="-111.8313267">
        <ele>1401.9</ele>
        <time>2022-03-24T23:54:23Z</time>
        <hdop>2</hdop>
        <extensions>
          <osmand:speed>7.8</osmand:speed>
        </extensions>
      </trkpt>
      <trkpt lat="41.7541717" lon="-111.8312317">
        <ele>1401.6</ele>
        <time>2022-03-24T23:54:24Z</time>
        <hdop>2</hdop>
        <extensions>
          <osmand:speed>7.8</osmand:speed>
        </extensions>
      </trkpt>
      <trkpt lat="41.7541617" lon="-111.8310383">
        <ele>1400.9</ele>
        <time>2022-03-24T23:54:26Z</time>
        <hdop>2.2</hdop>
        <extensions>
          <osmand:speed>7.8</osmand:speed>
        </extensions>
      </trkpt>
      <trkpt lat="41.7541583" lon="-111.8309433">
        <ele>1400.7</ele>
        <time>2022-03-24T23:54:27Z</time>
        <hdop>2.2</hdop>
        <extensions>
          <osmand:speed>7.7</osmand:speed>
        </extensions>
      </trkpt>
      <trkpt lat="41.7541533" lon="-111.8308517">
        <ele>1400.5</ele>
        <time>2022-03-24T23:54:28Z</time>
        <hdop>2.2</hdop>
        <extensions>
          <osmand:speed>7.8</osmand:speed>
        </extensions>
      </trkpt>
      <trkpt lat="41.7541483" lon="-111.83076">
        <ele>1400.7</ele>
        <time>2022-03-24T23:54:29Z</time>
        <hdop>2.2</hdop>
        <extensions>
          <osmand:speed>7.8</osmand:speed>
        </extensions>
      </trkpt>
      <trkpt lat="41.75413" lon="-111.830575">
        <ele>1400.3</ele>
        <time>2022-03-24T23:54:31Z</time>
        <hdop>2.2</hdop>
        <extensions>
          <osmand:speed>7.9</osmand:speed>
        </extensions>
      </trkpt>
      <trkpt lat="41.7541233" lon="-111.8304817">
        <ele>1400</ele>
        <time>2022-03-24T23:54:32Z</time>
        <hdop>2.2</hdop>
        <extensions>
          <osmand:speed>7.8</osmand:speed>
        </extensions>
      </trkpt>
      <trkpt lat="41.75412" lon="-111.830295">
        <ele>1398.9</ele>
        <time>2022-03-24T23:54:34Z</time>
        <hdop>2.2</hdop>
        <extensions>
          <osmand:speed>7.7</osmand:speed>
        </extensions>
      </trkpt>
      <trkpt lat="41.75407" lon="-111.83011">
        <ele>1396.5</ele>
        <time>2022-03-24T23:54:36Z</time>
        <hdop>2.2</hdop>
        <extensions>
          <osmand:speed>7.6</osmand:speed>
        </extensions>
      </trkpt>
      <trkpt lat="41.754065" lon="-111.8299383">
        <ele>1396.9</ele>
        <time>2022-03-24T23:54:38Z</time>
        <hdop>2.3</hdop>
        <extensions>
          <osmand:speed>7.1</osmand:speed>
        </extensions>
      </trkpt>
      <trkpt lat="41.7540633" lon="-111.8297783">
        <ele>1397.6</ele>
        <time>2022-03-24T23:54:40Z</time>
        <hdop>2.3</hdop>
        <extensions>
          <osmand:speed>6.6</osmand:speed>
        </extensions>
      </trkpt>
      <trkpt lat="41.7540633" lon="-111.829635">
        <ele>1398.1</ele>
        <time>2022-03-24T23:54:42Z</time>
        <hdop>2.4</hdop>
        <extensions>
          <osmand:speed>5.9</osmand:speed>
        </extensions>
      </trkpt>
      <trkpt lat="41.7540633" lon="-111.8295633">
        <ele>1398.4</ele>
        <time>2022-03-24T23:54:43Z</time>
        <hdop>2.3</hdop>
        <extensions>
          <osmand:speed>5.5</osmand:speed>
        </extensions>
      </trkpt>
      <trkpt lat="41.7540617" lon="-111.8294533">
        <ele>1398.9</ele>
        <time>2022-03-24T23:54:45Z</time>
        <hdop>2.4</hdop>
        <extensions>
          <osmand:speed>4.4</osmand:speed>
        </extensions>
      </trkpt>
      <trkpt lat="41.7540617" lon="-111.829375">
        <ele>1399.3</ele>
        <time>2022-03-24T23:54:47Z</time>
        <hdop>2.4</hdop>
        <extensions>
          <osmand:speed>2.9</osmand:speed>
        </extensions>
      </trkpt>
      <trkpt lat="41.7540633" lon="-111.8293317">
        <ele>1400.8</ele>
        <time>2022-03-24T23:54:49Z</time>
        <hdop>2.4</hdop>
        <extensions>
          <osmand:speed>1.5</osmand:speed>
        </extensions>
      </trkpt>
      <trkpt lat="41.7540517" lon="-111.8292933">
        <ele>1401.3</ele>
        <time>2022-03-24T23:55:00Z</time>
        <hdop>1.6</hdop>
        <extensions>
          <osmand:speed>1.4</osmand:speed>
        </extensions>
      </trkpt>
      <trkpt lat="41.75403" lon="-111.82928">
        <ele>1401.5</ele>
        <time>2022-03-24T23:55:01Z</time>
        <hdop>1.7</hdop>
        <extensions>
          <osmand:speed>1.7</osmand:speed>
        </extensions>
      </trkpt>
      <trkpt lat="41.753975" lon="-111.8292667">
        <ele>1401.7</ele>
        <time>2022-03-24T23:55:03Z</time>
        <hdop>1.8</hdop>
        <extensions>
          <osmand:speed>3.5</osmand:speed>
        </extensions>
      </trkpt>
      <trkpt lat="41.7539367" lon="-111.8292667">
        <ele>1401.9</ele>
        <time>2022-03-24T23:55:04Z</time>
        <hdop>1.8</hdop>
        <extensions>
          <osmand:speed>4.3</osmand:speed>
        </extensions>
      </trkpt>
      <trkpt lat="41.7538433" lon="-111.8292683">
        <ele>1402.1</ele>
        <time>2022-03-24T23:55:06Z</time>
        <hdop>1.9</hdop>
        <extensions>
          <osmand:speed>5.2</osmand:speed>
        </extensions>
      </trkpt>
      <trkpt lat="41.75374" lon="-111.82927">
        <ele>1401.9</ele>
        <time>2022-03-24T23:55:08Z</time>
        <hdop>1.9</hdop>
        <extensions>
          <osmand:speed>6</osmand:speed>
        </extensions>
      </trkpt>
      <trkpt lat="41.7536333" lon="-111.82927">
        <ele>1401.7</ele>
        <time>2022-03-24T23:55:10Z</time>
        <hdop>1.9</hdop>
        <extensions>
          <osmand:speed>5.7</osmand:speed>
        </extensions>
      </trkpt>
      <trkpt lat="41.753585" lon="-111.829275">
        <ele>1401.4</ele>
        <time>2022-03-24T23:55:11Z</time>
        <hdop>1.9</hdop>
        <extensions>
          <osmand:speed>5.6</osmand:speed>
        </extensions>
      </trkpt>
      <trkpt lat="41.753485" lon="-111.8292817">
        <ele>1401.1</ele>
        <time>2022-03-24T23:55:13Z</time>
        <hdop>2</hdop>
        <extensions>
          <osmand:speed>5.1</osmand:speed>
        </extensions>
      </trkpt>
      <trkpt lat="41.7534083" lon="-111.8292817">
        <ele>1401.1</ele>
        <time>2022-03-24T23:55:15Z</time>
        <hdop>2</hdop>
        <extensions>
          <osmand:speed>4.3</osmand:speed>
        </extensions>
      </trkpt>
      <trkpt lat="41.7533667" lon="-111.8292833">
        <ele>1400.8</ele>
        <time>2022-03-24T23:55:16Z</time>
        <hdop>2</hdop>
        <extensions>
          <osmand:speed>4.5</osmand:speed>
        </extensions>
      </trkpt>
      <trkpt lat="41.7532717" lon="-111.8292867">
        <ele>1400.8</ele>
        <time>2022-03-24T23:55:18Z</time>
        <hdop>2</hdop>
        <extensions>
          <osmand:speed>4.5</osmand:speed>
        </extensions>
      </trkpt>
      <trkpt lat="41.7532317" lon="-111.8292883">
        <ele>1400.5</ele>
        <time>2022-03-24T23:55:19Z</time>
        <hdop>2</hdop>
        <extensions>
          <osmand:speed>4</osmand:speed>
        </extensions>
      </trkpt>
      <trkpt lat="41.7531617" lon="-111.8292917">
        <ele>1400.3</ele>
        <time>2022-03-24T23:55:21Z</time>
        <hdop>2</hdop>
        <extensions>
          <osmand:speed>3.7</osmand:speed>
        </extensions>
      </trkpt>
      <trkpt lat="41.75313" lon="-111.8292933">
        <ele>1400.3</ele>
        <time>2022-03-24T23:55:22Z</time>
        <hdop>2</hdop>
        <extensions>
          <osmand:speed>3.5</osmand:speed>
        </extensions>
      </trkpt>
      <trkpt lat="41.75307" lon="-111.8292967">
        <ele>1401.4</ele>
        <time>2022-03-24T23:55:24Z</time>
        <hdop>2</hdop>
        <extensions>
          <osmand:speed>2.7</osmand:speed>
        </extensions>
      </trkpt>
      <trkpt lat="41.75305" lon="-111.8293017">
        <ele>1401.8</ele>
        <time>2022-03-24T23:55:25Z</time>
        <hdop>2</hdop>
        <extensions>
          <osmand:speed>2.3</osmand:speed>
        </extensions>
      </trkpt>
      <trkpt lat="41.75302" lon="-111.8292967">
        <ele>1404.2</ele>
        <time>2022-03-24T23:55:27Z</time>
        <hdop>2</hdop>
        <extensions>
          <osmand:speed>1.8</osmand:speed>
        </extensions>
      </trkpt>
      <trkpt lat="41.7529933" lon="-111.8292933">
        <ele>1405.6</ele>
        <time>2022-03-24T23:55:29Z</time>
        <hdop>2</hdop>
        <extensions>
          <osmand:speed>1.8</osmand:speed>
        </extensions>
      </trkpt>
      <trkpt lat="41.752965" lon="-111.8292867">
        <ele>1408.1</ele>
        <time>2022-03-24T23:55:32Z</time>
        <hdop>1.9</hdop>
        <extensions>
          <osmand:speed>2.1</osmand:speed>
        </extensions>
      </trkpt>
      <trkpt lat="41.7529433" lon="-111.8292517">
        <ele>1409.8</ele>
        <time>2022-03-24T23:55:34Z</time>
        <hdop>1.9</hdop>
        <extensions>
          <osmand:speed>2.1</osmand:speed>
        </extensions>
      </trkpt>
      <trkpt lat="41.7529283" lon="-111.8292283">
        <ele>1411.4</ele>
        <time>2022-03-24T23:55:36Z</time>
        <hdop>1.9</hdop>
        <extensions>
          <osmand:speed>1.6</osmand:speed>
        </extensions>
      </trkpt>
      <trkpt lat="41.752905" lon="-111.82921">
        <ele>1412.5</ele>
        <time>2022-03-24T23:55:38Z</time>
        <hdop>1.9</hdop>
        <extensions>
          <osmand:speed>2</osmand:speed>
        </extensions>
      </trkpt>
      <trkpt lat="41.752865" lon="-111.8291717">
        <ele>1413.4</ele>
        <time>2022-03-24T23:55:40Z</time>
        <hdop>1.9</hdop>
        <extensions>
          <osmand:speed>3.5</osmand:speed>
        </extensions>
      </trkpt>
      <trkpt lat="41.752825" lon="-111.82909">
        <ele>1412.9</ele>
        <time>2022-03-24T23:55:42Z</time>
        <hdop>1.9</hdop>
        <extensions>
          <osmand:speed>4.9</osmand:speed>
        </extensions>
      </trkpt>
      <trkpt lat="41.7528133" lon="-111.8290333">
        <ele>1412.8</ele>
        <time>2022-03-24T23:55:43Z</time>
        <hdop>1.9</hdop>
        <extensions>
          <osmand:speed>5.3</osmand:speed>
        </extensions>
      </trkpt>
      <trkpt lat="41.7528033" lon="-111.828895">
        <ele>1412.1</ele>
        <time>2022-03-24T23:55:45Z</time>
        <hdop>1.9</hdop>
        <extensions>
          <osmand:speed>6.2</osmand:speed>
        </extensions>
      </trkpt>
      <trkpt lat="41.7528033" lon="-111.8288167">
        <ele>1411.8</ele>
        <time>2022-03-24T23:55:46Z</time>
        <hdop>1.9</hdop>
        <extensions>
          <osmand:speed>6.5</osmand:speed>
        </extensions>
      </trkpt>
      <trkpt lat="41.7528033" lon="-111.8287367">
        <ele>1411.6</ele>
        <time>2022-03-24T23:55:47Z</time>
        <hdop>1.9</hdop>
        <extensions>
          <osmand:speed>6.8</osmand:speed>
        </extensions>
      </trkpt>
      <trkpt lat="41.7528017" lon="-111.828565">
        <ele>1410.5</ele>
        <time>2022-03-24T23:55:49Z</time>
        <hdop>1.9</hdop>
        <extensions>
          <osmand:speed>7</osmand:speed>
        </extensions>
      </trkpt>
      <trkpt lat="41.7527983" lon="-111.82839">
        <ele>1410.4</ele>
        <time>2022-03-24T23:55:51Z</time>
        <hdop>2</hdop>
        <extensions>
          <osmand:speed>7.1</osmand:speed>
        </extensions>
      </trkpt>
      <trkpt lat="41.752785" lon="-111.82822">
        <ele>1410.3</ele>
        <time>2022-03-24T23:55:53Z</time>
        <hdop>2</hdop>
        <extensions>
          <osmand:speed>7</osmand:speed>
        </extensions>
      </trkpt>
      <trkpt lat="41.7527817" lon="-111.828045">
        <ele>1410.3</ele>
        <time>2022-03-24T23:55:55Z</time>
        <hdop>2.1</hdop>
        <extensions>
          <osmand:speed>7.5</osmand:speed>
        </extensions>
      </trkpt>
      <trkpt lat="41.75277" lon="-111.827865">
        <ele>1410</ele>
        <time>2022-03-24T23:55:57Z</time>
        <hdop>2.1</hdop>
        <extensions>
          <osmand:speed>7.2</osmand:speed>
        </extensions>
      </trkpt>
      <trkpt lat="41.7527683" lon="-111.8277783">
        <ele>1409.9</ele>
        <time>2022-03-24T23:55:58Z</time>
        <hdop>2</hdop>
        <extensions>
          <osmand:speed>7</osmand:speed>
        </extensions>
      </trkpt>
      <trkpt lat="41.7527633" lon="-111.8276067">
        <ele>1409.3</ele>
        <time>2022-03-24T23:56:00Z</time>
        <hdop>2</hdop>
        <extensions>
          <osmand:speed>7.1</osmand:speed>
        </extensions>
      </trkpt>
      <trkpt lat="41.7527683" lon="-111.8274367">
        <ele>1408</ele>
        <time>2022-03-24T23:56:02Z</time>
        <hdop>2</hdop>
        <extensions>
          <osmand:speed>7</osmand:speed>
        </extensions>
      </trkpt>
      <trkpt lat="41.7527917" lon="-111.8272817">
        <ele>1408.1</ele>
        <time>2022-03-24T23:56:04Z</time>
        <hdop>2</hdop>
        <extensions>
          <osmand:speed>6.8</osmand:speed>
        </extensions>
      </trkpt>
      <trkpt lat="41.752815" lon="-111.8272067">
        <ele>1408.5</ele>
        <time>2022-03-24T23:56:05Z</time>
        <hdop>2</hdop>
        <extensions>
          <osmand:speed>6.8</osmand:speed>
        </extensions>
      </trkpt>
      <trkpt lat="41.75287" lon="-111.8270483">
        <ele>1408.2</ele>
        <time>2022-03-24T23:56:07Z</time>
        <hdop>2.1</hdop>
        <extensions>
          <osmand:speed>6.8</osmand:speed>
        </extensions>
      </trkpt>
      <trkpt lat="41.752905" lon="-111.8269733">
        <ele>1407.8</ele>
        <time>2022-03-24T23:56:08Z</time>
        <hdop>2.1</hdop>
        <extensions>
          <osmand:speed>7.1</osmand:speed>
        </extensions>
      </trkpt>
      <trkpt lat="41.7529883" lon="-111.82684">
        <ele>1407.5</ele>
        <time>2022-03-24T23:56:10Z</time>
        <hdop>2.1</hdop>
        <extensions>
          <osmand:speed>6.8</osmand:speed>
        </extensions>
      </trkpt>
      <trkpt lat="41.7530317" lon="-111.8267833">
        <ele>1407.7</ele>
        <time>2022-03-24T23:56:11Z</time>
        <hdop>2.2</hdop>
        <extensions>
          <osmand:speed>6.8</osmand:speed>
        </extensions>
      </trkpt>
      <trkpt lat="41.7531133" lon="-111.8266617">
        <ele>1408</ele>
        <time>2022-03-24T23:56:13Z</time>
        <hdop>2.3</hdop>
        <extensions>
          <osmand:speed>7.1</osmand:speed>
        </extensions>
      </trkpt>
      <trkpt lat="41.753195" lon="-111.8265283">
        <ele>1408.6</ele>
        <time>2022-03-24T23:56:15Z</time>
        <hdop>2.3</hdop>
        <extensions>
          <osmand:speed>7.2</osmand:speed>
        </extensions>
      </trkpt>
      <trkpt lat="41.75324" lon="-111.826465">
        <ele>1409.1</ele>
        <time>2022-03-24T23:56:16Z</time>
        <hdop>2.4</hdop>
        <extensions>
          <osmand:speed>7.1</osmand:speed>
        </extensions>
      </trkpt>
      <trkpt lat="41.7532833" lon="-111.826405">
        <ele>1409.3</ele>
        <time>2022-03-24T23:56:17Z</time>
        <hdop>2.4</hdop>
        <extensions>
          <osmand:speed>6.9</osmand:speed>
        </extensions>
      </trkpt>
      <trkpt lat="41.7533533" lon="-111.8262617">
        <ele>1409.1</ele>
        <time>2022-03-24T23:56:19Z</time>
        <hdop>2.4</hdop>
        <extensions>
          <osmand:speed>7.1</osmand:speed>
        </extensions>
      </trkpt>
      <trkpt lat="41.7533883" lon="-111.8260983">
        <ele>1410.2</ele>
        <time>2022-03-24T23:56:21Z</time>
        <hdop>2.3</hdop>
        <extensions>
          <osmand:speed>6.9</osmand:speed>
        </extensions>
      </trkpt>
      <trkpt lat="41.753385" lon="-111.8259367">
        <ele>1410.8</ele>
        <time>2022-03-24T23:56:23Z</time>
        <hdop>2.3</hdop>
        <extensions>
          <osmand:speed>7</osmand:speed>
        </extensions>
      </trkpt>
      <trkpt lat="41.7533817" lon="-111.8257683">
        <ele>1411.7</ele>
        <time>2022-03-24T23:56:25Z</time>
        <hdop>2.4</hdop>
        <extensions>
          <osmand:speed>7</osmand:speed>
        </extensions>
      </trkpt>
      <trkpt lat="41.75338" lon="-111.825685">
        <ele>1411.7</ele>
        <time>2022-03-24T23:56:26Z</time>
        <hdop>2.4</hdop>
        <extensions>
          <osmand:speed>7.1</osmand:speed>
        </extensions>
      </trkpt>
      <trkpt lat="41.7533817" lon="-111.8255217">
        <ele>1412.3</ele>
        <time>2022-03-24T23:56:28Z</time>
        <hdop>2.4</hdop>
        <extensions>
          <osmand:speed>6.8</osmand:speed>
        </extensions>
      </trkpt>
      <trkpt lat="41.753375" lon="-111.8254433">
        <ele>1413</ele>
        <time>2022-03-24T23:56:29Z</time>
        <hdop>2.4</hdop>
        <extensions>
          <osmand:speed>6.8</osmand:speed>
        </extensions>
      </trkpt>
      <trkpt lat="41.75337" lon="-111.8253633">
        <ele>1413.1</ele>
        <time>2022-03-24T23:56:30Z</time>
        <hdop>2.3</hdop>
        <extensions>
          <osmand:speed>7</osmand:speed>
        </extensions>
      </trkpt>
      <trkpt lat="41.7533617" lon="-111.8252017">
        <ele>1414.7</ele>
        <time>2022-03-24T23:56:32Z</time>
        <hdop>2.4</hdop>
        <extensions>
          <osmand:speed>7.2</osmand:speed>
        </extensions>
      </trkpt>
      <trkpt lat="41.7533617" lon="-111.8250433">
        <ele>1415.9</ele>
        <time>2022-03-24T23:56:34Z</time>
        <hdop>2.4</hdop>
        <extensions>
          <osmand:speed>6.5</osmand:speed>
        </extensions>
      </trkpt>
      <trkpt lat="41.753365" lon="-111.82497">
        <ele>1416.4</ele>
        <time>2022-03-24T23:56:35Z</time>
        <hdop>2.4</hdop>
        <extensions>
          <osmand:speed>6.1</osmand:speed>
        </extensions>
      </trkpt>
      <trkpt lat="41.7533633" lon="-111.8248233">
        <ele>1417.2</ele>
        <time>2022-03-24T23:56:37Z</time>
        <hdop>2.4</hdop>
        <extensions>
          <osmand:speed>6</osmand:speed>
        </extensions>
      </trkpt>
      <trkpt lat="41.7533633" lon="-111.8247417">
        <ele>1416.7</ele>
        <time>2022-03-24T23:56:38Z</time>
        <hdop>2.4</hdop>
        <extensions>
          <osmand:speed>6</osmand:speed>
        </extensions>
      </trkpt>
      <trkpt lat="41.753355" lon="-111.82459">
        <ele>1416.2</ele>
        <time>2022-03-24T23:56:40Z</time>
        <hdop>2.4</hdop>
        <extensions>
          <osmand:speed>5.8</osmand:speed>
        </extensions>
      </trkpt>
      <trkpt lat="41.7533533" lon="-111.824525">
        <ele>1416.8</ele>
        <time>2022-03-24T23:56:41Z</time>
        <hdop>2.4</hdop>
        <extensions>
          <osmand:speed>5.4</osmand:speed>
        </extensions>
      </trkpt>
      <trkpt lat="41.7533483" lon="-111.8244283">
        <ele>1418.6</ele>
        <time>2022-03-24T23:56:43Z</time>
        <hdop>2.5</hdop>
        <extensions>
          <osmand:speed>3.7</osmand:speed>
        </extensions>
      </trkpt>
      <trkpt lat="41.7533533" lon="-111.8243367">
        <ele>1419.9</ele>
        <time>2022-03-24T23:56:45Z</time>
        <hdop>2.5</hdop>
        <extensions>
          <osmand:speed>4.2</osmand:speed>
        </extensions>
      </trkpt>
      <trkpt lat="41.7533533" lon="-111.8242733">
        <ele>1419.6</ele>
        <time>2022-03-24T23:56:46Z</time>
        <hdop>2.5</hdop>
        <extensions>
          <osmand:speed>4.9</osmand:speed>
        </extensions>
      </trkpt>
      <trkpt lat="41.7533517" lon="-111.824205">
        <ele>1419.4</ele>
        <time>2022-03-24T23:56:47Z</time>
        <hdop>2.5</hdop>
        <extensions>
          <osmand:speed>5.3</osmand:speed>
        </extensions>
      </trkpt>
      <trkpt lat="41.7533433" lon="-111.82407">
        <ele>1419.9</ele>
        <time>2022-03-24T23:56:49Z</time>
        <hdop>2.3</hdop>
        <extensions>
          <osmand:speed>5.5</osmand:speed>
        </extensions>
      </trkpt>
      <trkpt lat="41.7533467" lon="-111.823925">
        <ele>1418.8</ele>
        <time>2022-03-24T23:56:51Z</time>
        <hdop>2.2</hdop>
        <extensions>
          <osmand:speed>5.3</osmand:speed>
        </extensions>
      </trkpt>
      <trkpt lat="41.7533483" lon="-111.8238533">
        <ele>1418.1</ele>
        <time>2022-03-24T23:56:52Z</time>
        <hdop>2.2</hdop>
        <extensions>
          <osmand:speed>5.5</osmand:speed>
        </extensions>
      </trkpt>
      <trkpt lat="41.75335" lon="-111.8237867">
        <ele>1418.4</ele>
        <time>2022-03-24T23:56:53Z</time>
        <hdop>2.2</hdop>
        <extensions>
          <osmand:speed>5.5</osmand:speed>
        </extensions>
      </trkpt>
      <trkpt lat="41.7533517" lon="-111.8236433">
        <ele>1418.8</ele>
        <time>2022-03-24T23:56:55Z</time>
        <hdop>2.2</hdop>
        <extensions>
          <osmand:speed>5.6</osmand:speed>
        </extensions>
      </trkpt>
      <trkpt lat="41.753355" lon="-111.8234933">
        <ele>1418.1</ele>
        <time>2022-03-24T23:56:57Z</time>
        <hdop>2.3</hdop>
        <extensions>
          <osmand:speed>5.7</osmand:speed>
        </extensions>
      </trkpt>
      <trkpt lat="41.75336" lon="-111.8233417">
        <ele>1417.7</ele>
        <time>2022-03-24T23:56:59Z</time>
        <hdop>2.3</hdop>
        <extensions>
          <osmand:speed>6.1</osmand:speed>
        </extensions>
      </trkpt>
      <trkpt lat="41.75337" lon="-111.8231933">
        <ele>1418.1</ele>
        <time>2022-03-24T23:57:01Z</time>
        <hdop>2.3</hdop>
        <extensions>
          <osmand:speed>5.9</osmand:speed>
        </extensions>
      </trkpt>
      <trkpt lat="41.7533717" lon="-111.8230383">
        <ele>1418.3</ele>
        <time>2022-03-24T23:57:03Z</time>
        <hdop>2.3</hdop>
        <extensions>
          <osmand:speed>6.2</osmand:speed>
        </extensions>
      </trkpt>
      <trkpt lat="41.75337" lon="-111.8229633">
        <ele>1418.5</ele>
        <time>2022-03-24T23:57:04Z</time>
        <hdop>2.3</hdop>
        <extensions>
          <osmand:speed>5.9</osmand:speed>
        </extensions>
      </trkpt>
      <trkpt lat="41.7533567" lon="-111.82282">
        <ele>1419.9</ele>
        <time>2022-03-24T23:57:06Z</time>
        <hdop>2.2</hdop>
        <extensions>
          <osmand:speed>5.9</osmand:speed>
        </extensions>
      </trkpt>
      <trkpt lat="41.7533583" lon="-111.8227433">
        <ele>1419.9</ele>
        <time>2022-03-24T23:57:07Z</time>
        <hdop>2.2</hdop>
        <extensions>
          <osmand:speed>6.1</osmand:speed>
        </extensions>
      </trkpt>
      <trkpt lat="41.7533617" lon="-111.82259">
        <ele>1419.9</ele>
        <time>2022-03-24T23:57:09Z</time>
        <hdop>2.2</hdop>
        <extensions>
          <osmand:speed>6.2</osmand:speed>
        </extensions>
      </trkpt>
      <trkpt lat="41.7533583" lon="-111.8225133">
        <ele>1419.4</ele>
        <time>2022-03-24T23:57:10Z</time>
        <hdop>2.2</hdop>
        <extensions>
          <osmand:speed>6.1</osmand:speed>
        </extensions>
      </trkpt>
      <trkpt lat="41.7533617" lon="-111.8223567">
        <ele>1419.3</ele>
        <time>2022-03-24T23:57:12Z</time>
        <hdop>2.2</hdop>
        <extensions>
          <osmand:speed>6.1</osmand:speed>
        </extensions>
      </trkpt>
      <trkpt lat="41.753365" lon="-111.8222783">
        <ele>1419.1</ele>
        <time>2022-03-24T23:57:13Z</time>
        <hdop>2.2</hdop>
        <extensions>
          <osmand:speed>6.1</osmand:speed>
        </extensions>
      </trkpt>
      <trkpt lat="41.7533733" lon="-111.8221267">
        <ele>1418.9</ele>
        <time>2022-03-24T23:57:15Z</time>
        <hdop>2.3</hdop>
        <extensions>
          <osmand:speed>6.4</osmand:speed>
        </extensions>
      </trkpt>
      <trkpt lat="41.753385" lon="-111.8219817">
        <ele>1419.4</ele>
        <time>2022-03-24T23:57:17Z</time>
        <hdop>2.4</hdop>
        <extensions>
          <osmand:speed>6</osmand:speed>
        </extensions>
      </trkpt>
      <trkpt lat="41.7533883" lon="-111.8218483">
        <ele>1420</ele>
        <time>2022-03-24T23:57:19Z</time>
        <hdop>2.4</hdop>
        <extensions>
          <osmand:speed>5.6</osmand:speed>
        </extensions>
      </trkpt>
      <trkpt lat="41.7533683" lon="-111.821705">
        <ele>1419.4</ele>
        <time>2022-03-24T23:57:21Z</time>
        <hdop>2.4</hdop>
        <extensions>
          <osmand:speed>5.8</osmand:speed>
        </extensions>
      </trkpt>
      <trkpt lat="41.7533583" lon="-111.8216317">
        <ele>1418.9</ele>
        <time>2022-03-24T23:57:22Z</time>
        <hdop>2.4</hdop>
        <extensions>
          <osmand:speed>5.8</osmand:speed>
        </extensions>
      </trkpt>
      <trkpt lat="41.75335" lon="-111.8215567">
        <ele>1418.8</ele>
        <time>2022-03-24T23:57:23Z</time>
        <hdop>2.4</hdop>
        <extensions>
          <osmand:speed>5.6</osmand:speed>
        </extensions>
      </trkpt>
      <trkpt lat="41.753335" lon="-111.8214217">
        <ele>1417.3</ele>
        <time>2022-03-24T23:57:25Z</time>
        <hdop>2.4</hdop>
        <extensions>
          <osmand:speed>5.5</osmand:speed>
        </extensions>
      </trkpt>
      <trkpt lat="41.7533333" lon="-111.8212917">
        <ele>1417.6</ele>
        <time>2022-03-24T23:57:27Z</time>
        <hdop>2.4</hdop>
        <extensions>
          <osmand:speed>5.3</osmand:speed>
        </extensions>
      </trkpt>
      <trkpt lat="41.7533367" lon="-111.8211617">
        <ele>1417.9</ele>
        <time>2022-03-24T23:57:29Z</time>
        <hdop>2.4</hdop>
        <extensions>
          <osmand:speed>5.5</osmand:speed>
        </extensions>
      </trkpt>
      <trkpt lat="41.7533267" lon="-111.821095">
        <ele>1417.3</ele>
        <time>2022-03-24T23:57:30Z</time>
        <hdop>2.4</hdop>
        <extensions>
          <osmand:speed>5.4</osmand:speed>
        </extensions>
      </trkpt>
      <trkpt lat="41.7533233" lon="-111.821035">
        <ele>1417.4</ele>
        <time>2022-03-24T23:57:31Z</time>
        <hdop>2.4</hdop>
        <extensions>
          <osmand:speed>5.2</osmand:speed>
        </extensions>
      </trkpt>
      <trkpt lat="41.7533083" lon="-111.8209233">
        <ele>1417.3</ele>
        <time>2022-03-24T23:57:33Z</time>
        <hdop>2.4</hdop>
        <extensions>
          <osmand:speed>5</osmand:speed>
        </extensions>
      </trkpt>
      <trkpt lat="41.7533017" lon="-111.8208633">
        <ele>1417.5</ele>
        <time>2022-03-24T23:57:34Z</time>
        <hdop>2.4</hdop>
        <extensions>
          <osmand:speed>5.4</osmand:speed>
        </extensions>
      </trkpt>
      <trkpt lat="41.753295" lon="-111.820795">
        <ele>1416.7</ele>
        <time>2022-03-24T23:57:35Z</time>
        <hdop>2.3</hdop>
        <extensions>
          <osmand:speed>5.5</osmand:speed>
        </extensions>
      </trkpt>
      <trkpt lat="41.7533" lon="-111.8206633">
        <ele>1416.9</ele>
        <time>2022-03-24T23:57:37Z</time>
        <hdop>2.4</hdop>
        <extensions>
          <osmand:speed>5.3</osmand:speed>
        </extensions>
      </trkpt>
      <trkpt lat="41.7532983" lon="-111.8205983">
        <ele>1417</ele>
        <time>2022-03-24T23:57:38Z</time>
        <hdop>2.4</hdop>
        <extensions>
          <osmand:speed>5.3</osmand:speed>
        </extensions>
      </trkpt>
      <trkpt lat="41.753295" lon="-111.8204817">
        <ele>1417.4</ele>
        <time>2022-03-24T23:57:40Z</time>
        <hdop>2.4</hdop>
        <extensions>
          <osmand:speed>5</osmand:speed>
        </extensions>
      </trkpt>
      <trkpt lat="41.7532967" lon="-111.8204167">
        <ele>1417.3</ele>
        <time>2022-03-24T23:57:41Z</time>
        <hdop>2.4</hdop>
        <extensions>
          <osmand:speed>5</osmand:speed>
        </extensions>
      </trkpt>
      <trkpt lat="41.75329" lon="-111.8202933">
        <ele>1418</ele>
        <time>2022-03-24T23:57:43Z</time>
        <hdop>2.4</hdop>
        <extensions>
          <osmand:speed>5</osmand:speed>
        </extensions>
      </trkpt>
      <trkpt lat="41.7532867" lon="-111.8201767">
        <ele>1419.3</ele>
        <time>2022-03-24T23:57:45Z</time>
        <hdop>2.4</hdop>
        <extensions>
          <osmand:speed>4.8</osmand:speed>
        </extensions>
      </trkpt>
      <trkpt lat="41.7532867" lon="-111.82012">
        <ele>1420</ele>
        <time>2022-03-24T23:57:46Z</time>
        <hdop>2.3</hdop>
        <extensions>
          <osmand:speed>4.9</osmand:speed>
        </extensions>
      </trkpt>
      <trkpt lat="41.7532883" lon="-111.8200633">
        <ele>1420.6</ele>
        <time>2022-03-24T23:57:47Z</time>
        <hdop>2.3</hdop>
        <extensions>
          <osmand:speed>5.1</osmand:speed>
        </extensions>
      </trkpt>
      <trkpt lat="41.7532917" lon="-111.8200017">
        <ele>1421.1</ele>
        <time>2022-03-24T23:57:48Z</time>
        <hdop>2.2</hdop>
        <extensions>
          <osmand:speed>5.1</osmand:speed>
        </extensions>
      </trkpt>
      <trkpt lat="41.7532983" lon="-111.81988">
        <ele>1422.2</ele>
        <time>2022-03-24T23:57:50Z</time>
        <hdop>2.2</hdop>
        <extensions>
          <osmand:speed>5</osmand:speed>
        </extensions>
      </trkpt>
      <trkpt lat="41.7533067" lon="-111.8197683">
        <ele>1423.1</ele>
        <time>2022-03-24T23:57:52Z</time>
        <hdop>2.2</hdop>
        <extensions>
          <osmand:speed>4.5</osmand:speed>
        </extensions>
      </trkpt>
      <trkpt lat="41.7533117" lon="-111.8197117">
        <ele>1423.4</ele>
        <time>2022-03-24T23:57:53Z</time>
        <hdop>2.2</hdop>
        <extensions>
          <osmand:speed>4.3</osmand:speed>
        </extensions>
      </trkpt>
      <trkpt lat="41.7533083" lon="-111.8196067">
        <ele>1423.8</ele>
        <time>2022-03-24T23:57:55Z</time>
        <hdop>2.2</hdop>
        <extensions>
          <osmand:speed>3.9</osmand:speed>
        </extensions>
      </trkpt>
      <trkpt lat="41.7533" lon="-111.819515">
        <ele>1425.9</ele>
        <time>2022-03-24T23:57:57Z</time>
        <hdop>2.2</hdop>
        <extensions>
          <osmand:speed>3.9</osmand:speed>
        </extensions>
      </trkpt>
      <trkpt lat="41.7532967" lon="-111.8194733">
        <ele>1426.6</ele>
        <time>2022-03-24T23:57:58Z</time>
        <hdop>2.2</hdop>
        <extensions>
          <osmand:speed>3.7</osmand:speed>
        </extensions>
      </trkpt>
      <trkpt lat="41.7533033" lon="-111.8194083">
        <ele>1427.7</ele>
        <time>2022-03-24T23:58:00Z</time>
        <hdop>2.2</hdop>
        <extensions>
          <osmand:speed>2.4</osmand:speed>
        </extensions>
      </trkpt>
      <trkpt lat="41.7533067" lon="-111.8193667">
        <ele>1429</ele>
        <time>2022-03-24T23:58:02Z</time>
        <hdop>2.3</hdop>
        <extensions>
          <osmand:speed>1.3</osmand:speed>
        </extensions>
      </trkpt>
      <trkpt lat="41.7533" lon="-111.8192967">
        <ele>1426.7</ele>
        <time>2022-03-24T23:58:20Z</time>
        <hdop>1.5</hdop>
        <extensions>
          <osmand:speed>1.9</osmand:speed>
        </extensions>
      </trkpt>
      <trkpt lat="41.7533233" lon="-111.81925">
        <ele>1427</ele>
        <time>2022-03-24T23:58:22Z</time>
        <hdop>1.6</hdop>
        <extensions>
          <osmand:speed>3.1</osmand:speed>
        </extensions>
      </trkpt>
      <trkpt lat="41.7533483" lon="-111.8192317">
        <ele>1427.2</ele>
        <time>2022-03-24T23:58:23Z</time>
        <hdop>1.7</hdop>
        <extensions>
          <osmand:speed>3.6</osmand:speed>
        </extensions>
      </trkpt>
      <trkpt lat="41.753425" lon="-111.81921">
        <ele>1427.7</ele>
        <time>2022-03-24T23:58:25Z</time>
        <hdop>1.9</hdop>
        <extensions>
          <osmand:speed>5.1</osmand:speed>
        </extensions>
      </trkpt>
      <trkpt lat="41.753525" lon="-111.8192">
        <ele>1428</ele>
        <time>2022-03-24T23:58:27Z</time>
        <hdop>2</hdop>
        <extensions>
          <osmand:speed>5.8</osmand:speed>
        </extensions>
      </trkpt>
      <trkpt lat="41.7535783" lon="-111.8191983">
        <ele>1428.1</ele>
        <time>2022-03-24T23:58:28Z</time>
        <hdop>2.1</hdop>
        <extensions>
          <osmand:speed>6</osmand:speed>
        </extensions>
      </trkpt>
      <trkpt lat="41.75363" lon="-111.8192017">
        <ele>1428.4</ele>
        <time>2022-03-24T23:58:29Z</time>
        <hdop>2.1</hdop>
        <extensions>
          <osmand:speed>5.9</osmand:speed>
        </extensions>
      </trkpt>
      <trkpt lat="41.75374" lon="-111.81921">
        <ele>1429.2</ele>
        <time>2022-03-24T23:58:31Z</time>
        <hdop>2.2</hdop>
        <extensions>
          <osmand:speed>6.2</osmand:speed>
        </extensions>
      </trkpt>
      <trkpt lat="41.7537967" lon="-111.819215">
        <ele>1429.9</ele>
        <time>2022-03-24T23:58:32Z</time>
        <hdop>2.2</hdop>
        <extensions>
          <osmand:speed>6.5</osmand:speed>
        </extensions>
      </trkpt>
      <trkpt lat="41.753855" lon="-111.8192233">
        <ele>1430.6</ele>
        <time>2022-03-24T23:58:33Z</time>
        <hdop>2.3</hdop>
        <extensions>
          <osmand:speed>6.8</osmand:speed>
        </extensions>
      </trkpt>
      <trkpt lat="41.7539817" lon="-111.8192333">
        <ele>1431.8</ele>
        <time>2022-03-24T23:58:35Z</time>
        <hdop>2.3</hdop>
        <extensions>
          <osmand:speed>7.4</osmand:speed>
        </extensions>
      </trkpt>
      <trkpt lat="41.7541117" lon="-111.8192333">
        <ele>1432.6</ele>
        <time>2022-03-24T23:58:37Z</time>
        <hdop>2.4</hdop>
        <extensions>
          <osmand:speed>7</osmand:speed>
        </extensions>
      </trkpt>
      <trkpt lat="41.754175" lon="-111.8192333">
        <ele>1433.2</ele>
        <time>2022-03-24T23:58:38Z</time>
        <hdop>2.4</hdop>
        <extensions>
          <osmand:speed>7.2</osmand:speed>
        </extensions>
      </trkpt>
      <trkpt lat="41.754305" lon="-111.8192417">
        <ele>1434.2</ele>
        <time>2022-03-24T23:58:40Z</time>
        <hdop>2.5</hdop>
        <extensions>
          <osmand:speed>7.2</osmand:speed>
        </extensions>
      </trkpt>
      <trkpt lat="41.7543717" lon="-111.8192417">
        <ele>1434.6</ele>
        <time>2022-03-24T23:58:41Z</time>
        <hdop>2.5</hdop>
        <extensions>
          <osmand:speed>7.3</osmand:speed>
        </extensions>
      </trkpt>
      <trkpt lat="41.7545117" lon="-111.81924">
        <ele>1435.3</ele>
        <time>2022-03-24T23:58:43Z</time>
        <hdop>2.5</hdop>
        <extensions>
          <osmand:speed>7.6</osmand:speed>
        </extensions>
      </trkpt>
      <trkpt lat="41.754585" lon="-111.8192333">
        <ele>1435.7</ele>
        <time>2022-03-24T23:58:44Z</time>
        <hdop>2.5</hdop>
        <extensions>
          <osmand:speed>7.9</osmand:speed>
        </extensions>
      </trkpt>
      <trkpt lat="41.754745" lon="-111.8192067">
        <ele>1435.2</ele>
        <time>2022-03-24T23:58:46Z</time>
        <hdop>2.6</hdop>
        <extensions>
          <osmand:speed>8</osmand:speed>
        </extensions>
      </trkpt>
      <trkpt lat="41.7548233" lon="-111.8191967">
        <ele>1434.9</ele>
        <time>2022-03-24T23:58:47Z</time>
        <hdop>2.6</hdop>
        <extensions>
          <osmand:speed>8</osmand:speed>
        </extensions>
      </trkpt>
      <trkpt lat="41.7549833" lon="-111.8191767">
        <ele>1434.6</ele>
        <time>2022-03-24T23:58:49Z</time>
        <hdop>2.5</hdop>
        <extensions>
          <osmand:speed>8</osmand:speed>
        </extensions>
      </trkpt>
      <trkpt lat="41.7551383" lon="-111.819165">
        <ele>1434.3</ele>
        <time>2022-03-24T23:58:51Z</time>
        <hdop>2.5</hdop>
        <extensions>
          <osmand:speed>7.9</osmand:speed>
        </extensions>
      </trkpt>
      <trkpt lat="41.75521" lon="-111.8191667">
        <ele>1434.6</ele>
        <time>2022-03-24T23:58:52Z</time>
        <hdop>2.5</hdop>
        <extensions>
          <osmand:speed>8</osmand:speed>
        </extensions>
      </trkpt>
      <trkpt lat="41.7552833" lon="-111.819165">
        <ele>1434.9</ele>
        <time>2022-03-24T23:58:53Z</time>
        <hdop>2.5</hdop>
        <extensions>
          <osmand:speed>8</osmand:speed>
        </extensions>
      </trkpt>
      <trkpt lat="41.7554333" lon="-111.8191567">
        <ele>1434.7</ele>
        <time>2022-03-24T23:58:55Z</time>
        <hdop>2.5</hdop>
        <extensions>
          <osmand:speed>8.4</osmand:speed>
        </extensions>
      </trkpt>
      <trkpt lat="41.7555833" lon="-111.8191583">
        <ele>1434.5</ele>
        <time>2022-03-24T23:58:57Z</time>
        <hdop>2.5</hdop>
        <extensions>
          <osmand:speed>8.3</osmand:speed>
        </extensions>
      </trkpt>
      <trkpt lat="41.7556583" lon="-111.8191583">
        <ele>1434.6</ele>
        <time>2022-03-24T23:58:58Z</time>
        <hdop>2.5</hdop>
        <extensions>
          <osmand:speed>8.2</osmand:speed>
        </extensions>
      </trkpt>
      <trkpt lat="41.7557267" lon="-111.819145">
        <ele>1434.3</ele>
        <time>2022-03-24T23:58:59Z</time>
        <hdop>2.5</hdop>
        <extensions>
          <osmand:speed>8.2</osmand:speed>
        </extensions>
      </trkpt>
      <trkpt lat="41.7558783" lon="-111.8191283">
        <ele>1433.1</ele>
        <time>2022-03-24T23:59:01Z</time>
        <hdop>2.4</hdop>
        <extensions>
          <osmand:speed>8.3</osmand:speed>
        </extensions>
      </trkpt>
      <trkpt lat="41.7560383" lon="-111.81912">
        <ele>1429.8</ele>
        <time>2022-03-24T23:59:03Z</time>
        <hdop>2.3</hdop>
        <extensions>
          <osmand:speed>8.3</osmand:speed>
        </extensions>
      </trkpt>
      <trkpt lat="41.75619" lon="-111.8191267">
        <ele>1429.7</ele>
        <time>2022-03-24T23:59:05Z</time>
        <hdop>2.4</hdop>
        <extensions>
          <osmand:speed>8.4</osmand:speed>
        </extensions>
      </trkpt>
      <trkpt lat="41.756345" lon="-111.81912">
        <ele>1429.3</ele>
        <time>2022-03-24T23:59:07Z</time>
        <hdop>2.4</hdop>
        <extensions>
          <osmand:speed>8.4</osmand:speed>
        </extensions>
      </trkpt>
      <trkpt lat="41.75642" lon="-111.819115">
        <ele>1429.8</ele>
        <time>2022-03-24T23:59:08Z</time>
        <hdop>2.4</hdop>
        <extensions>
          <osmand:speed>8.2</osmand:speed>
        </extensions>
      </trkpt>
      <trkpt lat="41.7565633" lon="-111.8190983">
        <ele>1430.1</ele>
        <time>2022-03-24T23:59:10Z</time>
        <hdop>2.4</hdop>
        <extensions>
          <osmand:speed>8.2</osmand:speed>
        </extensions>
      </trkpt>
      <trkpt lat="41.7566967" lon="-111.8190883">
        <ele>1431.3</ele>
        <time>2022-03-24T23:59:12Z</time>
        <hdop>2.5</hdop>
        <extensions>
          <osmand:speed>7.5</osmand:speed>
        </extensions>
      </trkpt>
      <trkpt lat="41.7567667" lon="-111.8190833">
        <ele>1431</ele>
        <time>2022-03-24T23:59:13Z</time>
        <hdop>2.5</hdop>
        <extensions>
          <osmand:speed>7.5</osmand:speed>
        </extensions>
      </trkpt>
      <trkpt lat="41.7569017" lon="-111.819075">
        <ele>1430.3</ele>
        <time>2022-03-24T23:59:15Z</time>
        <hdop>2.4</hdop>
        <extensions>
          <osmand:speed>7.2</osmand:speed>
        </extensions>
      </trkpt>
      <trkpt lat="41.7570233" lon="-111.8190767">
        <ele>1429.6</ele>
        <time>2022-03-24T23:59:17Z</time>
        <hdop>2.4</hdop>
        <extensions>
          <osmand:speed>6.1</osmand:speed>
        </extensions>
      </trkpt>
      <trkpt lat="41.757075" lon="-111.8190767">
        <ele>1429.7</ele>
        <time>2022-03-24T23:59:18Z</time>
        <hdop>2.4</hdop>
        <extensions>
          <osmand:speed>5.4</osmand:speed>
        </extensions>
      </trkpt>
      <trkpt lat="41.7571167" lon="-111.8190783">
        <ele>1430</ele>
        <time>2022-03-24T23:59:19Z</time>
        <hdop>2.4</hdop>
        <extensions>
          <osmand:speed>4.4</osmand:speed>
        </extensions>
      </trkpt>
      <trkpt lat="41.7571817" lon="-111.8190617">
        <ele>1429.8</ele>
        <time>2022-03-24T23:59:21Z</time>
        <hdop>2.3</hdop>
        <extensions>
          <osmand:speed>2.4</osmand:speed>
        </extensions>
      </trkpt>
      <trkpt lat="41.7572183" lon="-111.8190467">
        <ele>1427.9</ele>
        <time>2022-03-24T23:59:23Z</time>
        <hdop>2.2</hdop>
        <extensions>
          <osmand:speed>1.8</osmand:speed>
        </extensions>
      </trkpt>
      <trkpt lat="41.7572567" lon="-111.8189983">
        <ele>1426.4</ele>
        <time>2022-03-24T23:59:25Z</time>
        <hdop>2.1</hdop>
        <extensions>
          <osmand:speed>3</osmand:speed>
        </extensions>
      </trkpt>
      <trkpt lat="41.7572917" lon="-111.8188867">
        <ele>1424.1</ele>
        <time>2022-03-24T23:59:27Z</time>
        <hdop>2.1</hdop>
        <extensions>
          <osmand:speed>3.8</osmand:speed>
        </extensions>
      </trkpt>
      <trkpt lat="41.7573033" lon="-111.8188167">
        <ele>1422.7</ele>
        <time>2022-03-24T23:59:28Z</time>
        <hdop>2.1</hdop>
        <extensions>
          <osmand:speed>4.6</osmand:speed>
        </extensions>
      </trkpt>
      <trkpt lat="41.7573133" lon="-111.8186633">
        <ele>1420.6</ele>
        <time>2022-03-24T23:59:30Z</time>
        <hdop>2.1</hdop>
        <extensions>
          <osmand:speed>5.3</osmand:speed>
        </extensions>
      </trkpt>
      <trkpt lat="41.7573133" lon="-111.81852">
        <ele>1419.8</ele>
        <time>2022-03-24T23:59:32Z</time>
        <hdop>2.2</hdop>
        <extensions>
          <osmand:speed>5.8</osmand:speed>
        </extensions>
      </trkpt>
      <trkpt lat="41.7573133" lon="-111.8183367">
        <ele>1416.6</ele>
        <time>2022-03-24T23:59:34Z</time>
        <hdop>2.3</hdop>
        <extensions>
          <osmand:speed>6.6</osmand:speed>
        </extensions>
      </trkpt>
      <trkpt lat="41.7573133" lon="-111.8182583">
        <ele>1416.3</ele>
        <time>2022-03-24T23:59:36Z</time>
        <hdop>2.3</hdop>
        <extensions>
          <osmand:speed>6.4</osmand:speed>
        </extensions>
      </trkpt>
      <trkpt lat="41.7573217" lon="-111.8181183">
        <ele>1415.8</ele>
        <time>2022-03-24T23:59:37Z</time>
        <hdop>2.5</hdop>
        <extensions>
          <osmand:speed>5.6</osmand:speed>
        </extensions>
      </trkpt>
    </trkseg>
  </trk>
</gpx>